<?xml version="1.0" encoding="UTF-8" standalone="no"?>
<!-- Created with Inkscape (http://www.inkscape.org/) -->

<svg
   xmlns:dc="http://purl.org/dc/elements/1.1/"
   xmlns:cc="http://creativecommons.org/ns#"
   xmlns:rdf="http://www.w3.org/1999/02/22-rdf-syntax-ns#"
   xmlns:svg="http://www.w3.org/2000/svg"
   xmlns="http://www.w3.org/2000/svg"
   xmlns:sodipodi="http://sodipodi.sourceforge.net/DTD/sodipodi-0.dtd"
   xmlns:inkscape="http://www.inkscape.org/namespaces/inkscape"
   id="svg2"
   version="1.1"
   inkscape:version="0.91 r13725"
   xml:space="preserve"
   width="1771.65"
   height="1062.9875"
   viewBox="0 0 1771.65 1062.9875"
   sodipodi:docname="brutbox-sensor-boxes.svg"><metadata
     id="metadata8"><rdf:RDF><cc:Work
         rdf:about=""><dc:format>image/svg+xml</dc:format><dc:type
           rdf:resource="http://purl.org/dc/dcmitype/StillImage" /><dc:title></dc:title></cc:Work></rdf:RDF></metadata><defs
     id="defs6"><clipPath
       clipPathUnits="userSpaceOnUse"
       id="clipPath20"><path
         d="m 0,850.39 1417.32,0 L 1417.32,0 0,0 0,850.39 Z"
         id="path22"
         inkscape:connector-curvature="0" /></clipPath></defs><sodipodi:namedview
     pagecolor="#ffffff"
     bordercolor="#666666"
     borderopacity="1"
     objecttolerance="10"
     gridtolerance="10"
     guidetolerance="10"
     inkscape:pageopacity="0"
     inkscape:pageshadow="2"
     inkscape:window-width="1366"
     inkscape:window-height="719"
     id="namedview4"
     showgrid="false"
     inkscape:zoom="0.53588673"
     inkscape:cx="916.36858"
     inkscape:cy="473.68601"
     inkscape:window-x="0"
     inkscape:window-y="25"
     inkscape:window-maximized="1"
     inkscape:current-layer="g10" /><g
     id="g10"
     inkscape:groupmode="layer"
     inkscape:label="boites-capteurs-65"
     transform="matrix(1.25,0,0,-1.25,0,1062.9875)"><g
       id="g12"
       transform="translate(224.0718,820.1754)"><path
         d="m 0,0 26.465,0 0,-8.504 26.037,0 0,8.504 26.605,0 0,-8.504 26.039,0 0,8.504 26.605,0 0,-8.504 26.037,0 0,8.504 26.464,0 0,-26.463 -8.502,0 0,-26.038 8.502,0 0,-26.605 -8.502,0 0,-26.039 8.502,0 0,-26.605 -8.502,0 0,-26.041 8.502,0 0,-26.461 -26.464,0 0,8.505 -26.037,0 0,-8.505 -26.605,0 0,8.505 -26.039,0 0,-8.505 -26.605,0 0,8.505 -26.037,0 0,-8.505 -26.465,0 0,26.461 8.503,0 0,26.041 -8.503,0 0,26.605 8.503,0 0,26.039 -8.503,0 0,26.605 8.503,0 0,26.038 -8.503,0 L 0,0 Z"
         style="fill:none;stroke:#ff0000;stroke-width:0.80000001;stroke-linecap:butt;stroke-linejoin:miter;stroke-miterlimit:4;stroke-dasharray:none;stroke-opacity:1"
         id="path14"
         inkscape:connector-curvature="0" /></g><g
       id="g16"><g
         id="g18"
         clip-path="url(#clipPath20)"><g
           id="g24"
           transform="translate(307.586,715.2936)"><path
             d="m 0,0 -0.336,0.232 c -4.159,2.869 -6.642,7.551 -6.642,12.523 0,4.973 2.483,9.656 6.642,12.525 L 0,25.512 l 17.224,0 0.337,-0.232 c 4.158,-2.869 6.642,-7.552 6.642,-12.525 0,-4.972 -2.484,-9.654 -6.642,-12.523 L 17.224,0 0,0 Z"
             style="fill:none;stroke:#ff0000;stroke-width:0.80000001;stroke-linecap:butt;stroke-linejoin:miter;stroke-miterlimit:4;stroke-dasharray:none;stroke-opacity:1"
             id="path26"
             inkscape:connector-curvature="0" /></g><g
           id="g28"
           transform="translate(1008.0819,819.9859)"><path
             d="m 0,0 26.465,0 0,-8.504 26.037,0 0,8.504 26.604,0 0,-8.504 26.04,0 0,8.504 26.605,0 0,-8.504 26.037,0 0,8.504 26.464,0 0,-26.463 -8.502,0 0,-26.038 8.502,0 0,-26.605 -8.502,0 0,-26.039 8.502,0 0,-26.605 -8.502,0 0,-26.041 8.502,0 0,-26.461 -26.464,0 0,8.505 -26.037,0 0,-8.505 -26.605,0 0,8.505 -26.04,0 0,-8.505 -26.604,0 0,8.505 -26.037,0 0,-8.505 -26.465,0 0,26.461 8.503,0 0,26.041 -8.503,0 0,26.605 8.503,0 0,26.039 -8.503,0 0,26.605 8.503,0 0,26.038 -8.503,0 L 0,0 Z"
             style="fill:none;stroke:#ff0000;stroke-width:0.80000001;stroke-linecap:butt;stroke-linejoin:miter;stroke-miterlimit:4;stroke-dasharray:none;stroke-opacity:1"
             id="path30"
             inkscape:connector-curvature="0" /></g><g
           id="g32"
           transform="translate(1110.1293,727.8599)"><path
             d="m 0,0 c 0,-5.479 -4.441,-9.921 -9.921,-9.921 -5.48,0 -9.921,4.442 -9.921,9.921 0,5.479 4.441,9.921 9.921,9.921 C -4.441,9.921 0,5.479 0,0 Z"
             style="fill:none;stroke:#ff0000;stroke-width:0.80000001;stroke-linecap:butt;stroke-linejoin:miter;stroke-miterlimit:4;stroke-dasharray:none;stroke-opacity:1"
             id="path34"
             inkscape:connector-curvature="0" /></g><g
           id="g36"
           transform="translate(288.9233,668.5145)"><path
             d="M 0,0 0.054,10.708 1.298,10.702 1.25,1.122 5.975,1.098 5.969,-0.03 0,0 Z"
             style="fill:#2a4b9a;fill-opacity:1;fill-rule:nonzero;stroke:none"
             id="path38"
             inkscape:connector-curvature="0" /></g><g
           id="g40"
           transform="translate(297.7065,676.4979)"><path
             d="m 0,0 -0.025,-5.208 c -0.004,-0.654 0.142,-1.143 0.439,-1.466 0.296,-0.324 0.762,-0.488 1.397,-0.491 0.839,-0.004 1.455,0.222 1.844,0.679 0.392,0.458 0.589,1.206 0.594,2.246 l 0.021,4.219 1.216,-0.006 -0.04,-8.028 -1.004,0.005 -0.17,1.078 -0.066,0 C 3.956,-7.366 3.608,-7.667 3.165,-7.875 2.723,-8.083 2.218,-8.185 1.651,-8.182 c -0.976,0.005 -1.706,0.24 -2.19,0.706 -0.482,0.467 -0.723,1.21 -0.717,2.231 L -1.23,0.006 0,0 Z"
             style="fill:#2a4b9a;fill-opacity:1;fill-rule:nonzero;stroke:none"
             id="path42"
             inkscape:connector-curvature="0" /></g><g
           id="g44"
           transform="translate(315.9634,668.3793)"><path
             d="M 0,0 0.026,5.222 C 0.029,5.862 -0.105,6.342 -0.377,6.663 -0.649,6.984 -1.073,7.147 -1.649,7.149 -2.406,7.153 -2.966,6.939 -3.329,6.506 -3.693,6.073 -3.877,5.405 -3.882,4.502 L -3.904,0.02 -5.12,0.026 -5.094,5.248 C -5.091,5.887 -5.225,6.368 -5.497,6.689 -5.769,7.01 -6.195,7.172 -6.776,7.175 -7.538,7.179 -8.097,6.953 -8.453,6.499 -8.81,6.044 -8.99,5.296 -8.995,4.256 l -0.022,-4.211 -1.215,0.006 0.04,8.028 0.988,-0.005 0.193,-1.1 0.059,0 c 0.231,0.389 0.556,0.693 0.974,0.91 0.419,0.218 0.887,0.325 1.405,0.323 1.255,-0.006 2.073,-0.464 2.454,-1.374 l 0.058,-0.001 c 0.242,0.419 0.59,0.749 1.045,0.991 0.456,0.242 0.974,0.361 1.555,0.359 C -0.553,8.177 0.126,7.94 0.576,7.472 1.024,7.003 1.246,6.256 1.241,5.231 L 1.215,-0.006 0,0 Z"
             style="fill:#2a4b9a;fill-opacity:1;fill-rule:nonzero;stroke:none"
             id="path46"
             inkscape:connector-curvature="0" /></g><g
           id="g48"
           transform="translate(320.8999,668.3549)"><path
             d="M 0,0 -1.216,0.006 -1.176,8.033 0.04,8.027 0,0 Z m -1.267,10.209 c 10e-4,0.278 0.071,0.482 0.208,0.611 0.137,0.128 0.309,0.192 0.514,0.191 0.195,-10e-4 0.362,-0.068 0.505,-0.2 C 0.1,10.678 0.17,10.476 0.169,10.202 0.167,9.929 0.095,9.725 -0.047,9.591 -0.189,9.458 -0.358,9.392 -0.554,9.393 c -0.205,10e-4 -0.375,0.068 -0.511,0.203 -0.136,0.135 -0.204,0.34 -0.202,0.613"
             style="fill:#2a4b9a;fill-opacity:1;fill-rule:nonzero;stroke:none"
             id="path50"
             inkscape:connector-curvature="0" /></g><g
           id="g52"
           transform="translate(327.4409,677.4115)"><path
             d="M 0,0 -0.805,0.004 C -1.122,0.26 -1.496,0.623 -1.929,1.094 -2.36,1.565 -2.673,1.955 -2.867,2.263 L -2.866,2.417 -1.379,2.41 C -1.226,2.072 -1.01,1.681 -0.733,1.238 -0.457,0.794 -0.213,0.443 0.001,0.183 L 0,0 Z m -0.866,-1.929 c -0.645,0.003 -1.159,-0.204 -1.545,-0.622 -0.385,-0.418 -0.614,-0.998 -0.687,-1.74 L 1.1,-4.312 c 0.004,0.767 -0.164,1.354 -0.504,1.764 -0.34,0.409 -0.827,0.616 -1.462,0.619 m 0.293,-7.304 c -1.186,0.006 -2.12,0.372 -2.804,1.098 -0.682,0.726 -1.02,1.731 -1.014,3.015 0.006,1.294 0.33,2.321 0.971,3.079 0.642,0.759 1.499,1.135 2.573,1.13 1.006,-0.005 1.8,-0.34 2.383,-1.004 0.583,-0.665 0.871,-1.539 0.866,-2.623 l -0.004,-0.769 -5.53,0.027 c 0.02,-0.942 0.254,-1.659 0.704,-2.149 0.449,-0.491 1.084,-0.738 1.905,-0.742 0.863,-0.005 1.718,0.172 2.565,0.529 L 2.036,-8.726 C 1.605,-8.91 1.199,-9.041 0.815,-9.119 0.432,-9.198 -0.03,-9.236 -0.573,-9.233"
             style="fill:#2a4b9a;fill-opacity:1;fill-rule:nonzero;stroke:none"
             id="path54"
             inkscape:connector-curvature="0" /></g><g
           id="g56"
           transform="translate(335.5962,676.4554)"><path
             d="M 0,0 C 0.356,-0.002 0.676,-0.033 0.959,-0.093 L 0.785,-1.22 c -0.332,0.075 -0.624,0.113 -0.878,0.115 -0.649,0.002 -1.207,-0.258 -1.671,-0.783 -0.464,-0.525 -0.698,-1.181 -0.702,-1.967 l -0.021,-4.307 -1.216,0.006 0.04,8.028 1.004,-0.005 0.132,-1.488 0.058,0 c 0.3,0.521 0.661,0.922 1.082,1.203 C -0.966,-0.137 -0.503,0.002 0,0"
             style="fill:#2a4b9a;fill-opacity:1;fill-rule:nonzero;stroke:none"
             id="path58"
             inkscape:connector-curvature="0" /></g><g
           id="g60"
           transform="translate(341.1138,675.41)"><path
             d="M 0,0 C -0.645,0.003 -1.159,-0.205 -1.545,-0.623 -1.93,-1.041 -2.159,-1.62 -2.231,-2.362 L 1.966,-2.383 C 1.97,-1.617 1.802,-1.029 1.462,-0.619 1.122,-0.21 0.635,-0.003 0,0 m 0.293,-7.304 c -1.186,0.006 -2.12,0.372 -2.804,1.098 -0.681,0.726 -1.02,1.731 -1.013,3.015 0.005,1.294 0.33,2.32 0.97,3.079 0.642,0.758 1.499,1.135 2.574,1.13 1.005,-0.005 1.799,-0.34 2.382,-1.004 0.583,-0.665 0.871,-1.539 0.867,-2.623 l -0.004,-0.769 -5.531,0.027 c 0.02,-0.942 0.254,-1.659 0.704,-2.149 0.449,-0.491 1.084,-0.738 1.905,-0.742 0.863,-0.005 1.719,0.172 2.565,0.529 L 2.902,-6.797 C 2.472,-6.98 2.065,-7.112 1.682,-7.19 1.298,-7.269 0.836,-7.307 0.293,-7.304"
             style="fill:#2a4b9a;fill-opacity:1;fill-rule:nonzero;stroke:none"
             id="path62"
             inkscape:connector-curvature="0" /></g><g
           id="g64"
           transform="translate(1073.3057,673.8446)"><path
             d="M 0,0 1.707,-0.008 C 2.586,-0.013 3.231,0.158 3.643,0.505 4.055,0.853 4.263,1.375 4.266,2.074 4.27,2.782 4.063,3.293 3.647,3.607 3.231,3.922 2.563,4.082 1.64,4.086 L 0.021,4.094 0,0 Z M -0.006,-1.069 -0.028,-5.522 -1.272,-5.516 -1.219,5.192 1.718,5.177 C 3.031,5.17 4.001,4.915 4.625,4.408 5.251,3.902 5.561,3.144 5.556,2.133 5.548,0.717 4.826,-0.236 3.388,-0.728 l 2.882,-4.826 -1.471,0.008 -2.57,4.465 -2.235,0.012 z"
             style="fill:#2a4b9a;fill-opacity:1;fill-rule:nonzero;stroke:none"
             id="path66"
             inkscape:connector-curvature="0" /></g><g
           id="g68"
           transform="translate(1081.9541,672.3002)"><path
             d="m 0,0 c -0.005,-1.025 0.196,-1.808 0.604,-2.347 0.407,-0.539 1.009,-0.811 1.805,-0.815 0.796,-0.004 1.402,0.261 1.817,0.793 0.416,0.533 0.626,1.314 0.63,2.345 C 4.861,0.996 4.659,1.772 4.249,2.304 3.84,2.836 3.231,3.104 2.426,3.108 1.63,3.112 1.028,2.854 0.62,2.333 0.212,1.813 0.005,1.035 0,0 M 6.116,-0.031 C 6.109,-1.339 5.775,-2.359 5.111,-3.091 4.45,-3.823 3.537,-4.186 2.375,-4.18 c -0.718,0.004 -1.354,0.176 -1.909,0.515 -0.555,0.34 -0.984,0.826 -1.281,1.457 -0.301,0.631 -0.449,1.37 -0.445,2.214 0.007,1.309 0.339,2.326 0.998,3.054 0.657,0.726 1.567,1.086 2.73,1.081 C 3.59,4.135 4.48,3.757 5.139,3.006 5.797,2.256 6.122,1.244 6.116,-0.031"
             style="fill:#2a4b9a;fill-opacity:1;fill-rule:nonzero;stroke:none"
             id="path70"
             inkscape:connector-curvature="0" /></g><g
           id="g72"
           transform="translate(1092.7783,669.0819)"><path
             d="M 0,0 C 0.215,-0.001 0.422,0.014 0.622,0.044 0.822,0.075 0.981,0.107 1.1,0.141 L 1.095,-0.789 C 0.962,-0.852 0.768,-0.903 0.512,-0.943 0.255,-0.984 0.024,-1.003 -0.181,-1.002 c -1.552,0.007 -2.325,0.829 -2.317,2.464 l 0.024,4.776 -1.15,0.006 0.003,0.586 1.152,0.5 0.522,1.711 0.703,-0.004 -0.01,-1.86 L 1.075,7.165 1.071,6.22 -1.258,6.232 -1.282,1.508 C -1.284,1.024 -1.172,0.653 -0.942,0.393 -0.716,0.133 -0.4,0.002 0,0"
             style="fill:#2a4b9a;fill-opacity:1;fill-rule:nonzero;stroke:none"
             id="path74"
             inkscape:connector-curvature="0" /></g><g
           id="g76"
           transform="translate(1097.6709,669.0575)"><path
             d="m 0,0 c 0.757,-0.004 1.353,0.201 1.787,0.614 0.434,0.412 0.652,0.992 0.656,1.74 L 2.447,3.079 1.231,3.033 C 0.265,3.004 -0.434,2.857 -0.862,2.594 -1.29,2.329 -1.506,1.917 -1.509,1.355 -1.512,0.916 -1.38,0.581 -1.114,0.35 -0.851,0.119 -0.479,0.002 0,0 m 2.742,-0.871 -0.235,1.144 -0.059,0 C 2.045,-0.228 1.645,-0.566 1.245,-0.742 0.847,-0.918 0.35,-1.005 -0.246,-1.002 c -0.796,0.003 -1.419,0.212 -1.868,0.624 -0.45,0.413 -0.673,0.997 -0.669,1.754 0.008,1.621 1.307,2.464 3.902,2.53 L 2.48,3.943 2.483,4.441 C 2.486,5.071 2.354,5.537 2.084,5.838 1.814,6.14 1.382,6.292 0.786,6.295 0.117,6.298 -0.641,6.097 -1.487,5.691 l -0.368,0.932 c 0.395,0.213 0.83,0.379 1.301,0.499 C -0.082,7.242 0.391,7.3 0.864,7.298 1.821,7.293 2.529,7.077 2.989,6.65 3.448,6.223 3.676,5.541 3.671,4.604 L 3.644,-0.875 2.742,-0.871 Z"
             style="fill:#2a4b9a;fill-opacity:1;fill-rule:nonzero;stroke:none"
             id="path78"
             inkscape:connector-curvature="0" /></g><g
           id="g80"
           transform="translate(1106.417,669.014)"><path
             d="M 0,0 C 0.215,-0.001 0.422,0.013 0.622,0.044 0.822,0.075 0.981,0.107 1.1,0.141 L 1.095,-0.79 C 0.962,-0.852 0.768,-0.903 0.512,-0.944 c -0.257,-0.04 -0.488,-0.06 -0.693,-0.059 -1.552,0.008 -2.325,0.83 -2.317,2.465 l 0.024,4.776 -1.15,0.006 0.003,0.586 1.152,0.499 0.522,1.712 0.703,-0.004 -0.01,-1.86 L 1.075,7.165 1.071,6.22 -1.258,6.232 -1.282,1.508 C -1.284,1.024 -1.172,0.653 -0.942,0.393 -0.716,0.133 -0.4,0.002 0,0"
             style="fill:#2a4b9a;fill-opacity:1;fill-rule:nonzero;stroke:none"
             id="path82"
             inkscape:connector-curvature="0" /></g><g
           id="g84"
           transform="translate(1110.3301,668.1371)"><path
             d="M 0,0 -1.216,0.006 -1.176,8.034 0.04,8.027 0,0 Z m -1.267,10.209 c 10e-4,0.279 0.071,0.482 0.208,0.611 0.137,0.128 0.309,0.193 0.514,0.192 0.195,-0.001 0.362,-0.068 0.505,-0.201 C 0.1,10.679 0.17,10.476 0.169,10.202 0.167,9.929 0.095,9.725 -0.047,9.591 -0.189,9.458 -0.358,9.392 -0.554,9.393 -0.759,9.394 -0.929,9.461 -1.065,9.597 -1.201,9.731 -1.269,9.936 -1.267,10.209"
             style="fill:#2a4b9a;fill-opacity:1;fill-rule:nonzero;stroke:none"
             id="path86"
             inkscape:connector-curvature="0" /></g><g
           id="g88"
           transform="translate(1113.7412,672.1415)"><path
             d="m 0,0 c -0.005,-1.025 0.196,-1.808 0.604,-2.347 0.407,-0.539 1.009,-0.811 1.805,-0.815 0.796,-0.004 1.402,0.261 1.817,0.794 0.416,0.532 0.626,1.313 0.63,2.344 C 4.861,0.996 4.659,1.772 4.249,2.305 3.84,2.836 3.231,3.104 2.426,3.108 1.63,3.112 1.028,2.854 0.62,2.333 0.212,1.813 0.005,1.035 0,0 M 6.116,-0.031 C 6.109,-1.339 5.775,-2.359 5.111,-3.091 4.45,-3.823 3.537,-4.186 2.375,-4.18 c -0.718,0.004 -1.354,0.176 -1.909,0.515 -0.555,0.34 -0.984,0.826 -1.281,1.457 -0.301,0.631 -0.449,1.37 -0.445,2.214 0.007,1.309 0.339,2.326 0.998,3.054 0.657,0.726 1.567,1.086 2.73,1.081 C 3.59,4.135 4.48,3.757 5.139,3.006 5.797,2.256 6.122,1.244 6.116,-0.031"
             style="fill:#2a4b9a;fill-opacity:1;fill-rule:nonzero;stroke:none"
             id="path90"
             inkscape:connector-curvature="0" /></g><g
           id="g92"
           transform="translate(1127.4609,668.0516)"><path
             d="M 0,0 0.026,5.193 C 0.029,5.847 -0.117,6.336 -0.413,6.66 -0.71,6.984 -1.175,7.147 -1.81,7.15 -2.649,7.155 -3.266,6.931 -3.659,6.479 -4.052,6.026 -4.251,5.278 -4.256,4.233 l -0.021,-4.212 -1.216,0.007 0.04,8.027 0.988,-0.005 0.194,-1.1 0.058,0 c 0.251,0.394 0.601,0.699 1.053,0.914 0.449,0.215 0.95,0.321 1.502,0.319 C -0.691,8.178 0.035,7.94 0.521,7.472 1.007,7.003 1.247,6.256 1.242,5.231 L 1.216,-0.006 0,0 Z"
             style="fill:#2a4b9a;fill-opacity:1;fill-rule:nonzero;stroke:none"
             id="path94"
             inkscape:connector-curvature="0" /></g><g
           id="g96"
           transform="translate(316.1974,759.0176)"><path
             d="M 0,0 0,26.396"
             style="fill:none;stroke:#66b22e;stroke-width:1.20799994;stroke-linecap:butt;stroke-linejoin:miter;stroke-miterlimit:4;stroke-dasharray:none;stroke-opacity:1"
             id="path98"
             inkscape:connector-curvature="0" /></g><g
           id="g100"
           transform="translate(316.1974,688.4125)"><path
             d="M 0,0 0,9.396"
             style="fill:none;stroke:#66b22e;stroke-width:1.20799994;stroke-linecap:butt;stroke-linejoin:miter;stroke-miterlimit:4;stroke-dasharray:none;stroke-opacity:1"
             id="path102"
             inkscape:connector-curvature="0" /></g><g
           id="g104"
           transform="translate(300.8954,754.9171)"><path
             d="M 0,0 -13.199,22.86"
             style="fill:none;stroke:#66b22e;stroke-width:1.20799994;stroke-linecap:butt;stroke-linejoin:miter;stroke-miterlimit:4;stroke-dasharray:none;stroke-opacity:1"
             id="path106"
             inkscape:connector-curvature="0" /></g><g
           id="g108"
           transform="translate(339.2919,688.4125)"><path
             d="M 0,0 -7.791,13.496"
             style="fill:none;stroke:#66b22e;stroke-width:1.20799994;stroke-linecap:butt;stroke-linejoin:miter;stroke-miterlimit:4;stroke-dasharray:none;stroke-opacity:1"
             id="path110"
             inkscape:connector-curvature="0" /></g><g
           id="g112"
           transform="translate(289.6942,743.7151)"><path
             d="M 0,0 -22.86,13.198"
             style="fill:none;stroke:#66b22e;stroke-width:1.20799994;stroke-linecap:butt;stroke-linejoin:miter;stroke-miterlimit:4;stroke-dasharray:none;stroke-opacity:1"
             id="path114"
             inkscape:connector-curvature="0" /></g><g
           id="g116"
           transform="translate(365.5618,699.9121)"><path
             d="M 0,0 -22.858,13.199"
             style="fill:none;stroke:#66b22e;stroke-width:1.20799994;stroke-linecap:butt;stroke-linejoin:miter;stroke-miterlimit:4;stroke-dasharray:none;stroke-opacity:1"
             id="path118"
             inkscape:connector-curvature="0" /></g><g
           id="g120"
           transform="translate(285.595,728.4131)"><path
             d="M 0,0 -26.397,0.001"
             style="fill:none;stroke:#66b22e;stroke-width:1.20799994;stroke-linecap:butt;stroke-linejoin:miter;stroke-miterlimit:4;stroke-dasharray:none;stroke-opacity:1"
             id="path122"
             inkscape:connector-curvature="0" /></g><g
           id="g124"
           transform="translate(373.1994,728.4124)"><path
             d="M 0,0 -26.395,0.002"
             style="fill:none;stroke:#66b22e;stroke-width:1.20799994;stroke-linecap:butt;stroke-linejoin:miter;stroke-miterlimit:4;stroke-dasharray:none;stroke-opacity:1"
             id="path126"
             inkscape:connector-curvature="0" /></g><g
           id="g128"
           transform="translate(289.6957,713.112)"><path
             d="M 0,0 -22.86,-13.198"
             style="fill:none;stroke:#66b22e;stroke-width:1.20799994;stroke-linecap:butt;stroke-linejoin:miter;stroke-miterlimit:4;stroke-dasharray:none;stroke-opacity:1"
             id="path130"
             inkscape:connector-curvature="0" /></g><g
           id="g132"
           transform="translate(365.5633,756.9135)"><path
             d="M 0,0 -22.86,-13.195"
             style="fill:none;stroke:#66b22e;stroke-width:1.20799994;stroke-linecap:butt;stroke-linejoin:miter;stroke-miterlimit:4;stroke-dasharray:none;stroke-opacity:1"
             id="path134"
             inkscape:connector-curvature="0" /></g><g
           id="g136"
           transform="translate(300.8969,701.9107)"><path
             d="M 0,0 -7.794,-13.498"
             style="fill:none;stroke:#66b22e;stroke-width:1.20799994;stroke-linecap:butt;stroke-linejoin:miter;stroke-miterlimit:4;stroke-dasharray:none;stroke-opacity:1"
             id="path138"
             inkscape:connector-curvature="0" /></g><g
           id="g140"
           transform="translate(344.7007,777.7784)"><path
             d="M 0,0 -13.2,-22.858"
             style="fill:none;stroke:#66b22e;stroke-width:1.20799994;stroke-linecap:butt;stroke-linejoin:miter;stroke-miterlimit:4;stroke-dasharray:none;stroke-opacity:1"
             id="path142"
             inkscape:connector-curvature="0" /></g><g
           id="g144"
           transform="translate(618.1019,820.5432)"><path
             d="m 0,0 26.465,0 0,-8.504 26.037,0 0,8.504 26.604,0 0,-8.504 26.04,0 0,8.504 26.605,0 0,-8.504 26.037,0 0,8.504 26.464,0 0,-26.463 -8.502,0 0,-26.038 8.502,0 0,-26.605 -8.502,0 0,-26.039 8.502,0 0,-26.605 -8.502,0 0,-26.041 8.502,0 0,-26.461 -26.464,0 0,8.505 -26.037,0 0,-8.505 -26.605,0 0,8.505 -26.04,0 0,-8.505 -26.604,0 0,8.505 -26.037,0 0,-8.505 -26.465,0 0,26.461 8.503,0 0,26.041 -8.503,0 0,26.605 8.503,0 0,26.039 -8.503,0 0,26.605 8.503,0 0,26.038 -8.503,0 L 0,0 Z"
             style="fill:none;stroke:#ff0000;stroke-width:0.80000001;stroke-linecap:butt;stroke-linejoin:miter;stroke-miterlimit:4;stroke-dasharray:none;stroke-opacity:1"
             id="path146"
             inkscape:connector-curvature="0" /></g><g
           id="g148"
           transform="translate(751.3304,728.7815)"><path
             d="m 0,0 c 0,-22.7 -18.402,-41.102 -41.103,-41.102 -22.7,0 -41.102,18.402 -41.102,41.102 0,22.7 18.402,41.103 41.102,41.103 C -18.402,41.103 0,22.7 0,0 Z"
             style="fill:none;stroke:#ff0000;stroke-width:1;stroke-linecap:butt;stroke-linejoin:miter;stroke-miterlimit:4;stroke-dasharray:none;stroke-opacity:1"
             id="path150"
             inkscape:connector-curvature="0" /></g><g
           id="g152"
           transform="translate(687.2173,674.9833)"><path
             d="M 0,0 2.05,-0.01 C 2.929,-0.015 3.562,0.12 3.949,0.395 4.336,0.668 4.532,1.132 4.535,1.787 4.538,2.387 4.324,2.821 3.897,3.09 3.468,3.358 2.786,3.495 1.849,3.5 L 0.018,3.508 0,0 Z m -0.006,-1.055 -0.019,-4.006 2.233,-0.011 c 0.864,-0.004 1.516,0.159 1.954,0.492 0.439,0.332 0.66,0.855 0.663,1.568 0.004,0.664 -0.218,1.153 -0.662,1.468 -0.445,0.315 -1.125,0.474 -2.038,0.479 l -2.131,0.01 z M -1.222,4.591 1.802,4.576 C 3.223,4.569 4.249,4.352 4.882,3.924 5.515,3.496 5.829,2.823 5.825,1.905 5.821,1.27 5.642,0.747 5.286,0.336 4.929,-0.075 4.411,-0.339 3.732,-0.458 l 0,-0.073 C 5.356,-0.817 6.165,-1.676 6.158,-3.107 6.153,-4.064 5.826,-4.809 5.177,-5.343 4.527,-5.877 3.62,-6.141 2.458,-6.135 l -3.733,0.018 0.053,10.708 z"
             style="fill:#2a4b9a;fill-opacity:1;fill-rule:nonzero;stroke:none"
             id="path154"
             inkscape:connector-curvature="0" /></g><g
           id="g156"
           transform="translate(696.3091,672.8358)"><path
             d="m 0,0 c -0.005,-1.025 0.196,-1.808 0.604,-2.347 0.407,-0.539 1.009,-0.81 1.805,-0.814 0.796,-0.005 1.402,0.26 1.817,0.793 0.416,0.532 0.626,1.314 0.63,2.344 C 4.861,0.997 4.659,1.772 4.249,2.305 3.84,2.836 3.231,3.104 2.426,3.108 1.63,3.112 1.028,2.854 0.62,2.333 0.212,1.813 0.005,1.035 0,0 M 6.116,-0.03 C 6.109,-1.339 5.775,-2.359 5.111,-3.09 4.45,-3.822 3.537,-4.185 2.375,-4.179 c -0.718,0.003 -1.354,0.175 -1.909,0.514 -0.555,0.34 -0.984,0.826 -1.281,1.457 -0.301,0.632 -0.449,1.37 -0.445,2.214 0.007,1.309 0.339,2.327 0.998,3.054 0.657,0.726 1.567,1.086 2.73,1.081 C 3.59,4.135 4.48,3.757 5.139,3.007 5.797,2.256 6.122,1.244 6.116,-0.03"
             style="fill:#2a4b9a;fill-opacity:1;fill-rule:nonzero;stroke:none"
             id="path158"
             inkscape:connector-curvature="0" /></g><g
           id="g160"
           transform="translate(705.7192,676.7953)"><path
             d="m 0,0 -0.025,-5.208 c -0.004,-0.654 0.142,-1.143 0.439,-1.466 0.296,-0.324 0.762,-0.488 1.397,-0.491 0.839,-0.004 1.455,0.223 1.844,0.68 0.392,0.457 0.589,1.205 0.594,2.245 l 0.021,4.219 1.216,-0.006 -0.04,-8.028 -1.004,0.006 -0.17,1.077 -0.066,0 C 3.956,-7.366 3.608,-7.667 3.165,-7.875 2.723,-8.083 2.218,-8.185 1.651,-8.182 c -0.976,0.005 -1.706,0.241 -2.19,0.707 -0.482,0.466 -0.723,1.209 -0.717,2.23 L -1.23,0.006 0,0 Z"
             style="fill:#2a4b9a;fill-opacity:1;fill-rule:nonzero;stroke:none"
             id="path162"
             inkscape:connector-curvature="0" /></g><g
           id="g164"
           transform="translate(716.3408,669.5717)"><path
             d="M 0,0 C 0.215,-0.001 0.422,0.014 0.622,0.044 0.822,0.075 0.981,0.107 1.1,0.141 L 1.095,-0.789 C 0.962,-0.852 0.768,-0.903 0.512,-0.943 c -0.257,-0.04 -0.488,-0.06 -0.693,-0.059 -1.552,0.007 -2.325,0.829 -2.317,2.465 l 0.024,4.775 -1.15,0.006 0.003,0.586 1.152,0.5 0.522,1.711 L -1.244,9.038 -1.254,7.177 1.075,7.166 1.071,6.221 -1.258,6.232 -1.282,1.508 C -1.284,1.025 -1.172,0.653 -0.942,0.393 -0.716,0.133 -0.4,0.002 0,0"
             style="fill:#2a4b9a;fill-opacity:1;fill-rule:nonzero;stroke:none"
             id="path166"
             inkscape:connector-curvature="0" /></g><g
           id="g168"
           transform="translate(719.8711,672.7186)"><path
             d="m 0,0 c -0.005,-1.025 0.196,-1.808 0.604,-2.347 0.407,-0.539 1.009,-0.811 1.805,-0.815 0.796,-0.004 1.402,0.26 1.817,0.793 0.416,0.533 0.626,1.314 0.63,2.345 C 4.861,0.996 4.659,1.772 4.249,2.304 3.84,2.835 3.231,3.104 2.426,3.108 1.63,3.112 1.028,2.854 0.62,2.333 0.212,1.813 0.005,1.035 0,0 M 6.116,-0.031 C 6.109,-1.339 5.775,-2.36 5.111,-3.091 4.45,-3.823 3.537,-4.186 2.375,-4.18 c -0.718,0.004 -1.354,0.176 -1.909,0.515 -0.555,0.34 -0.984,0.826 -1.281,1.457 -0.301,0.631 -0.449,1.369 -0.445,2.214 0.007,1.308 0.339,2.326 0.998,3.053 0.657,0.727 1.567,1.087 2.73,1.082 C 3.59,4.135 4.48,3.757 5.139,3.006 5.797,2.256 6.122,1.244 6.116,-0.031"
             style="fill:#2a4b9a;fill-opacity:1;fill-rule:nonzero;stroke:none"
             id="path170"
             inkscape:connector-curvature="0" /></g><g
           id="g172"
           transform="translate(733.5918,668.6288)"><path
             d="M 0,0 0.026,5.193 C 0.029,5.847 -0.117,6.336 -0.413,6.66 -0.71,6.984 -1.175,7.147 -1.81,7.15 -2.649,7.155 -3.266,6.931 -3.659,6.479 -4.052,6.026 -4.251,5.278 -4.256,4.233 l -0.021,-4.212 -1.216,0.006 0.04,8.028 0.988,-0.005 0.194,-1.1 0.058,0 c 0.251,0.394 0.601,0.698 1.053,0.914 0.449,0.215 0.95,0.321 1.502,0.319 C -0.691,8.178 0.035,7.94 0.521,7.472 1.007,7.003 1.247,6.256 1.242,5.231 L 1.216,-0.006 0,0 Z"
             style="fill:#2a4b9a;fill-opacity:1;fill-rule:nonzero;stroke:none"
             id="path174"
             inkscape:connector-curvature="0" /></g><g
           id="g176"
           transform="translate(777.6085,783.2854)"><path
             d="m 0,0 -13.701,13.701 -10.88,-10.881 -5.151,5.151 5.625,-17.983 18.377,-6.018 -5.15,5.15 L 0,0 Z"
             style="fill:#2a4b9a;fill-opacity:1;fill-rule:nonzero;stroke:none"
             id="path178"
             inkscape:connector-curvature="0" /></g><g
           id="g180"
           transform="translate(1373.0012,229.6695)"><path
             d="m 0,0 0,-26.465 -8.504,0 0,-26.037 8.504,0 0,-26.604 -8.504,0 0,-26.039 8.504,0 0,-26.606 -8.504,0 0,-26.037 8.504,0 0,-26.464 -26.464,0 0,8.502 -26.036,0 0,-8.502 -26.606,0 0,8.502 -26.039,0 0,-8.502 -26.605,0 0,8.502 -26.042,0 0,-8.502 -26.46,0 0,26.464 8.505,0 0,26.037 -8.505,0 0,26.606 8.505,0 0,26.039 -8.505,0 0,26.604 8.505,0 0,26.037 -8.505,0 0,26.465 26.46,0 0,-8.503 26.042,0 0,8.503 26.605,0 0,-8.503 26.039,0 0,8.503 26.606,0 0,-8.503 26.036,0 0,8.503 L 0,0 Z"
             style="fill:none;stroke:#ff0000;stroke-width:0.80000001;stroke-linecap:butt;stroke-linejoin:miter;stroke-miterlimit:4;stroke-dasharray:none;stroke-opacity:1"
             id="path182"
             inkscape:connector-curvature="0" /></g><path
           d="m 1269.537,168.724 22.677,0 0,-62.362 -22.677,0 0,62.362 z"
           style="fill:none;stroke:#ff0000;stroke-width:0.80000001;stroke-linecap:butt;stroke-linejoin:miter;stroke-miterlimit:4;stroke-dasharray:none;stroke-opacity:1"
           id="path184"
           inkscape:connector-curvature="0" /><g
           id="g186"
           transform="translate(1226.835,160.0892)"><path
             d="m 0,0 c 1.396,-0.007 2.45,0.338 3.162,1.035 0.712,0.697 1.07,1.736 1.077,3.118 l 0.01,1.81 -8.555,0.043 -0.007,-1.517 C -4.321,3.005 -3.962,1.887 -3.235,1.137 -2.509,0.386 -1.431,0.007 0,0 M 0.037,-1.317 C -1.73,-1.309 -3.079,-0.822 -4.01,0.141 -4.94,1.104 -5.4,2.488 -5.392,4.29 L -5.376,7.256 5.331,7.202 5.315,3.921 C 5.307,2.257 4.839,0.964 3.911,0.047 2.983,-0.871 1.692,-1.326 0.037,-1.317"
             style="fill:#2a4b9a;fill-opacity:1;fill-rule:nonzero;stroke:none"
             id="path188"
             inkscape:connector-curvature="0" /></g><g
           id="g190"
           transform="translate(1231.6074,156.6459)"><path
             d="M 0,0 C 0.279,-0.001 0.482,-0.07 0.611,-0.208 0.739,-0.345 0.804,-0.517 0.803,-0.722 0.802,-0.917 0.734,-1.084 0.602,-1.227 0.47,-1.366 0.267,-1.437 -0.007,-1.436 c -0.273,0.002 -0.477,0.075 -0.61,0.216 -0.134,0.143 -0.199,0.312 -0.199,0.507 0.002,0.205 0.068,0.375 0.204,0.512 C -0.478,-0.065 -0.273,0.002 0,0 m -10.209,-1.267 0.006,1.216 8.027,-0.04 -0.006,-1.216 -8.027,0.04 z"
             style="fill:#2a4b9a;fill-opacity:1;fill-rule:nonzero;stroke:none"
             id="path192"
             inkscape:connector-curvature="0" /></g><g
           id="g194"
           transform="translate(1223.5498,147.6107)"><path
             d="m 0,0 c -0.747,0.004 -1.321,0.284 -1.724,0.843 -0.403,0.558 -0.601,1.342 -0.596,2.346 0.005,1.066 0.177,1.895 0.517,2.489 L -0.675,5.672 C -0.872,5.288 -1.028,4.875 -1.143,4.433 -1.257,3.992 -1.315,3.565 -1.317,3.155 -1.32,2.521 -1.222,2.033 -1.021,1.689 -0.819,1.348 -0.512,1.175 -0.097,1.173 0.216,1.171 0.483,1.305 0.708,1.575 0.931,1.845 1.196,2.372 1.503,3.157 1.784,3.901 2.03,4.432 2.239,4.746 2.448,5.06 2.685,5.293 2.95,5.445 3.214,5.598 3.529,5.674 3.896,5.672 4.55,5.668 5.065,5.4 5.44,4.866 5.816,4.332 6.002,3.601 5.997,2.673 5.993,1.809 5.813,0.965 5.458,0.142 L 4.471,0.578 C 4.808,1.383 4.977,2.111 4.979,2.766 4.983,3.342 4.895,3.776 4.716,4.07 4.536,4.364 4.288,4.513 3.971,4.514 3.756,4.515 3.572,4.461 3.421,4.352 3.269,4.243 3.124,4.067 2.985,3.823 2.848,3.58 2.647,3.112 2.386,2.42 2.034,1.469 1.682,0.828 1.328,0.495 0.976,0.162 0.532,-0.002 0,0"
             style="fill:#2a4b9a;fill-opacity:1;fill-rule:nonzero;stroke:none"
             id="path196"
             inkscape:connector-curvature="0" /></g><g
           id="g198"
           transform="translate(1222.1934,143.0472)"><path
             d="m 0,0 c 0,-0.215 0.014,-0.422 0.045,-0.622 0.031,-0.2 0.062,-0.359 0.097,-0.478 l -0.931,0.005 c -0.063,0.133 -0.113,0.327 -0.154,0.583 -0.039,0.257 -0.06,0.488 -0.059,0.693 0.008,1.552 0.83,2.325 2.465,2.317 L 6.238,2.474 6.244,3.624 6.83,3.621 7.33,2.469 9.041,1.947 9.038,1.244 7.178,1.254 7.166,-1.075 6.221,-1.071 6.232,1.258 1.509,1.282 C 1.025,1.284 0.653,1.172 0.394,0.942 0.134,0.716 0.003,0.4 0,0"
             style="fill:#2a4b9a;fill-opacity:1;fill-rule:nonzero;stroke:none"
             id="path200"
             inkscape:connector-curvature="0" /></g><g
           id="g202"
           transform="translate(1222.1699,138.1546)"><path
             d="M 0,0 C -0.004,-0.757 0.201,-1.353 0.613,-1.787 1.026,-2.221 1.606,-2.439 2.354,-2.443 L 3.078,-2.447 3.033,-1.231 C 3.004,-0.265 2.857,0.434 2.594,0.862 2.329,1.29 1.916,1.506 1.355,1.509 0.916,1.512 0.58,1.38 0.35,1.114 0.119,0.851 0.002,0.479 0,0 m -0.871,-2.742 1.144,0.235 0,0.059 c -0.501,0.403 -0.839,0.803 -1.015,1.203 -0.176,0.398 -0.264,0.895 -0.26,1.491 0.004,0.796 0.211,1.419 0.624,1.868 0.413,0.45 0.997,0.673 1.754,0.669 C 2.997,2.775 3.84,1.476 3.905,-1.119 L 3.942,-2.48 4.44,-2.483 c 0.63,-0.003 1.097,0.129 1.398,0.399 0.302,0.27 0.454,0.702 0.457,1.298 0.004,0.669 -0.198,1.427 -0.604,2.273 L 6.623,1.855 C 6.836,1.46 7.002,1.025 7.122,0.554 7.242,0.082 7.301,-0.391 7.298,-0.864 7.293,-1.821 7.077,-2.529 6.65,-2.989 6.223,-3.448 5.541,-3.676 4.604,-3.671 l -5.479,0.027 0.004,0.902 z"
             style="fill:#2a4b9a;fill-opacity:1;fill-rule:nonzero;stroke:none"
             id="path204"
             inkscape:connector-curvature="0" /></g><g
           id="g206"
           transform="translate(1221.2539,126.514)"><path
             d="M 0,0 5.193,-0.026 C 5.848,-0.029 6.337,0.117 6.66,0.413 6.984,0.71 7.148,1.175 7.15,1.81 7.155,2.649 6.932,3.266 6.479,3.659 6.027,4.052 5.278,4.251 4.233,4.256 L 0.021,4.277 0.028,5.493 8.056,5.453 8.051,4.465 l -1.1,-0.194 0,-0.058 C 7.345,3.962 7.649,3.612 7.864,3.16 8.08,2.711 8.186,2.21 8.184,1.658 8.178,0.691 7.941,-0.035 7.473,-0.521 7.004,-1.007 6.257,-1.247 5.231,-1.242 L -0.006,-1.216 0,0 Z"
             style="fill:#2a4b9a;fill-opacity:1;fill-rule:nonzero;stroke:none"
             id="path208"
             inkscape:connector-curvature="0" /></g><g
           id="g210"
           transform="translate(1221.0742,119.5921)"><path
             d="M 0,0 C 0.006,1.162 0.367,2.061 1.086,2.694 1.805,3.327 2.818,3.642 4.127,3.635 5.469,3.628 6.506,3.299 7.234,2.648 7.964,1.998 8.325,1.075 8.319,-0.122 8.317,-0.507 8.273,-0.893 8.189,-1.278 8.104,-1.663 8.005,-1.967 7.892,-2.185 l -1.031,0.378 c 0.108,0.269 0.199,0.561 0.272,0.878 0.072,0.318 0.109,0.598 0.109,0.841 C 7.251,1.544 6.215,2.365 4.135,2.375 3.148,2.38 2.391,2.185 1.861,1.789 1.332,1.395 1.065,0.806 1.062,0.024 1.059,-0.645 1.199,-1.331 1.483,-2.035 L 0.406,-2.03 C 0.131,-1.491 -0.005,-0.815 0,0"
             style="fill:#2a4b9a;fill-opacity:1;fill-rule:nonzero;stroke:none"
             id="path212"
             inkscape:connector-curvature="0" /></g><g
           id="g214"
           transform="translate(1228.3408,112.5619)"><path
             d="M 0,0 C 0.003,0.645 -0.204,1.159 -0.622,1.545 -1.04,1.93 -1.62,2.159 -2.362,2.231 l -0.021,-4.197 c 0.767,-0.004 1.355,0.164 1.764,0.504 C -0.21,-1.122 -0.003,-0.635 0,0 m -7.304,-0.293 c 0.006,1.186 0.372,2.12 1.098,2.804 0.727,0.681 1.731,1.02 3.016,1.013 1.294,-0.005 2.32,-0.33 3.078,-0.97 C 0.647,1.912 1.023,1.055 1.019,-0.02 1.013,-1.025 0.679,-1.819 0.015,-2.402 -0.651,-2.985 -1.524,-3.273 -2.608,-3.269 l -0.77,0.004 0.027,5.531 C -4.293,2.246 -5.009,2.012 -5.5,1.562 -5.991,1.113 -6.237,0.478 -6.242,-0.343 c -0.004,-0.863 0.173,-1.719 0.529,-2.565 l -1.084,0.006 c -0.182,0.43 -0.314,0.837 -0.392,1.22 -0.08,0.384 -0.118,0.846 -0.115,1.389"
             style="fill:#2a4b9a;fill-opacity:1;fill-rule:nonzero;stroke:none"
             id="path216"
             inkscape:connector-curvature="0" /></g><g
           id="g218"
           transform="translate(1314.2955,157.2316)"><path
             d="M 0,0 -8.653,-19.688 0,-39.378 l 0,7.003 20.305,7.998 0,-7.284 8.739,11.693 -8.739,12.25 0,-7.283 L 0.011,-7.007 0,0 Z"
             style="fill:#2a4b9a;fill-opacity:1;fill-rule:nonzero;stroke:none"
             id="path220"
             inkscape:connector-curvature="0" /></g><g
           id="g222"
           transform="translate(1151.6619,754.7293)"><path
             d="m 0,0 c -7.276,14.199 -22.047,23.923 -39.099,23.923 -23.7,0 -43.005,-18.776 -43.878,-42.262 0.862,16.893 14.833,30.325 31.941,30.325 13.42,0 24.903,-8.27 29.648,-19.989 l -0.401,-0.15 -8.143,-3.047 9.973,-1.245 12.345,-1.542 L 1.734,-3.828 8.016,2.999 0,0 Z"
             style="fill:#2a4b9a;fill-opacity:1;fill-rule:nonzero;stroke:none"
             id="path224"
             inkscape:connector-curvature="0" /></g><path
           d="m 105.008,499.029 34.016,0 0,-30.897 -34.016,0 0,30.897 z"
           style="fill:none;stroke:#ff0000;stroke-width:1;stroke-linecap:butt;stroke-linejoin:miter;stroke-miterlimit:10;stroke-dasharray:none;stroke-opacity:1"
           id="path226"
           inkscape:connector-curvature="0" /><g
           id="g228"
           transform="translate(29.8567,618.9422)"><path
             d="m 0,0 26.18,0 0,8.509 26.605,0 0,-8.509 26.039,0 0,8.509 26.605,0 0,-8.509 26.038,0 0,8.509 26.605,0 0,-8.509 26.18,0 0,-33.589 -8.504,0 0,-33.166 8.504,0 0,-33.731 -8.504,0 0,-33.164 8.504,0 0,-33.591 -26.18,0 0,-8.502 -26.605,0 0,8.502 -26.038,0 0,-8.502 -26.605,0 0,8.502 -26.039,0 0,-8.502 -26.605,0 0,8.502 -26.18,0 0,33.591 8.505,0 0,33.163 -8.505,0 0,33.732 8.505,0 0,33.166 -8.505,0 L 0,0 Z"
             style="fill:none;stroke:#ff0000;stroke-width:0.80000001;stroke-linecap:butt;stroke-linejoin:miter;stroke-miterlimit:4;stroke-dasharray:none;stroke-opacity:1"
             id="path230"
             inkscape:connector-curvature="0" /></g><g
           id="g232"
           transform="translate(30.0721,820.3479)"><path
             d="m 0,0 26.463,0 0,-8.504 26.039,0 0,8.504 26.605,0 0,-8.504 26.038,0 0,8.504 26.605,0 0,-8.504 26.039,0 0,8.504 26.463,0 0,-26.463 -8.504,0 0,-26.038 8.504,0 0,-26.605 -8.504,0 0,-26.038 8.504,0 0,-26.606 -8.504,0 0,-26.041 8.504,0 0,-26.461 -26.463,0 0,8.505 -26.039,0 0,-8.505 -26.605,0 0,8.505 -26.038,0 0,-8.505 -26.605,0 0,8.505 -26.039,0 0,-8.505 -26.463,0 0,26.461 8.505,0 0,26.041 -8.505,0 0,26.606 8.505,0 0,26.038 -8.505,0 0,26.605 8.505,0 0,26.038 -8.505,0 L 0,0 Z"
             style="fill:none;stroke:#ff0000;stroke-width:0.80000001;stroke-linecap:butt;stroke-linejoin:miter;stroke-miterlimit:4;stroke-dasharray:none;stroke-opacity:1"
             id="path234"
             inkscape:connector-curvature="0" /></g><g
           id="g236"
           transform="translate(222.5897,619.3196)"><path
             d="m 0,0 26.18,0 0,8.509 26.604,0 0,-8.509 26.041,0 0,8.509 26.603,0 0,-8.509 26.04,0 0,8.509 26.605,0 0,-8.509 26.179,0 0,-33.589 -8.502,0 0,-33.166 8.502,0 0,-33.731 -8.502,0 0,-33.164 8.502,0 0,-33.591 -26.179,0 0,-8.502 -26.605,0 0,8.502 -26.04,0 0,-8.502 -26.603,0 0,8.502 -26.041,0 0,-8.502 -26.604,0 0,8.502 -26.18,0 0,33.591 8.503,0 0,33.163 -8.503,0 0,33.732 8.503,0 0,33.166 -8.503,0 L 0,0 Z"
             style="fill:none;stroke:#ff0000;stroke-width:0.80000001;stroke-linecap:butt;stroke-linejoin:miter;stroke-miterlimit:4;stroke-dasharray:none;stroke-opacity:1"
             id="path238"
             inkscape:connector-curvature="0" /></g><g
           id="g240"
           transform="translate(231.0926,426.803)"><path
             d="m 0,0 17.677,0 0,8.505 26.604,0 0,-8.505 26.041,0 0,8.505 26.603,0 0,-8.505 26.04,0 0,8.505 26.605,0 0,-8.505 17.677,0 0,-33.307 8.502,0 0,-33.733 -8.502,0 0,-33.163 8.502,0 0,-33.733 -8.502,0 0,-33.308 -17.677,0 0,-8.503 -26.605,0 0,8.503 -26.04,0 0,-8.503 -26.603,0 0,8.503 -26.041,0 0,-8.503 -26.604,0 0,8.503 -17.677,0 0,33.308 -8.503,0 0,33.733 8.503,0 0,33.163 -8.503,0 0,33.733 8.503,0 L 0,0 Z"
             style="fill:none;stroke:#ff0000;stroke-width:0.80000001;stroke-linecap:butt;stroke-linejoin:miter;stroke-miterlimit:4;stroke-dasharray:none;stroke-opacity:1"
             id="path242"
             inkscape:connector-curvature="0" /></g><g
           id="g244"
           transform="translate(38.577,426.803)"><path
             d="m 0,0 17.675,0 0,8.505 26.605,0 0,-8.505 26.039,0 0,8.505 26.605,0 0,-8.505 26.038,0 0,8.505 26.605,0 0,-8.505 17.676,0 0,-33.307 8.504,0 0,-33.733 -8.504,0 0,-33.163 8.504,0 0,-33.733 -8.504,0 0,-33.308 -17.676,0 0,-8.503 -26.605,0 0,8.503 -26.038,0 0,-8.503 -26.605,0 0,8.503 -26.039,0 0,-8.503 -26.605,0 0,8.503 -17.675,0 0,33.308 -8.505,0 0,33.733 8.505,0 0,33.163 -8.505,0 0,33.733 8.505,0 L 0,0 Z"
             style="fill:none;stroke:#ff0000;stroke-width:0.80000001;stroke-linecap:butt;stroke-linejoin:miter;stroke-miterlimit:4;stroke-dasharray:none;stroke-opacity:1"
             id="path246"
             inkscape:connector-curvature="0" /></g><path
           d="m 499.221,499.029 34.016,0 0,-30.897 -34.016,0 0,30.897 z"
           style="fill:none;stroke:#ff0000;stroke-width:1;stroke-linecap:butt;stroke-linejoin:miter;stroke-miterlimit:10;stroke-dasharray:none;stroke-opacity:1"
           id="path248"
           inkscape:connector-curvature="0" /><g
           id="g250"
           transform="translate(424.0697,618.9422)"><path
             d="m 0,0 26.18,0 0,8.509 26.605,0 0,-8.509 26.039,0 0,8.509 26.605,0 0,-8.509 26.038,0 0,8.509 26.605,0 0,-8.509 26.18,0 0,-33.589 -8.504,0 0,-33.166 8.504,0 0,-33.731 -8.504,0 0,-33.164 8.504,0 0,-33.591 -26.18,0 0,-8.502 -26.605,0 0,8.502 -26.038,0 0,-8.502 -26.605,0 0,8.502 -26.039,0 0,-8.502 -26.605,0 0,8.502 -26.18,0 0,33.591 8.505,0 0,33.163 -8.505,0 0,33.732 8.505,0 0,33.166 -8.505,0 L 0,0 Z"
             style="fill:none;stroke:#ff0000;stroke-width:0.80000001;stroke-linecap:butt;stroke-linejoin:miter;stroke-miterlimit:4;stroke-dasharray:none;stroke-opacity:1"
             id="path252"
             inkscape:connector-curvature="0" /></g><g
           id="g254"
           transform="translate(424.2851,820.3479)"><path
             d="m 0,0 26.463,0 0,-8.504 26.039,0 0,8.504 26.605,0 0,-8.504 26.037,0 0,8.504 26.606,0 0,-8.504 26.039,0 0,8.504 26.463,0 0,-26.463 -8.504,0 0,-26.038 8.504,0 0,-26.605 -8.504,0 0,-26.038 8.504,0 0,-26.606 -8.504,0 0,-26.041 8.504,0 0,-26.461 -26.463,0 0,8.505 -26.039,0 0,-8.505 -26.606,0 0,8.505 -26.037,0 0,-8.505 -26.605,0 0,8.505 -26.039,0 0,-8.505 -26.463,0 0,26.461 8.505,0 0,26.041 -8.505,0 0,26.606 8.505,0 0,26.038 -8.505,0 0,26.605 8.505,0 0,26.038 -8.505,0 L 0,0 Z"
             style="fill:none;stroke:#ff0000;stroke-width:0.80000001;stroke-linecap:butt;stroke-linejoin:miter;stroke-miterlimit:4;stroke-dasharray:none;stroke-opacity:1"
             id="path256"
             inkscape:connector-curvature="0" /></g><g
           id="g258"
           transform="translate(616.8027,619.3196)"><path
             d="m 0,0 26.18,0 0,8.509 26.604,0 0,-8.509 26.041,0 0,8.509 26.603,0 0,-8.509 26.04,0 0,8.509 26.605,0 0,-8.509 26.179,0 0,-33.589 -8.502,0 0,-33.166 8.502,0 0,-33.731 -8.502,0 0,-33.164 8.502,0 0,-33.591 -26.179,0 0,-8.502 -26.605,0 0,8.502 -26.04,0 0,-8.502 -26.603,0 0,8.502 -26.041,0 0,-8.502 -26.604,0 0,8.502 -26.18,0 0,33.591 8.503,0 0,33.163 -8.503,0 0,33.732 8.503,0 0,33.166 -8.503,0 L 0,0 Z"
             style="fill:none;stroke:#ff0000;stroke-width:0.80000001;stroke-linecap:butt;stroke-linejoin:miter;stroke-miterlimit:4;stroke-dasharray:none;stroke-opacity:1"
             id="path260"
             inkscape:connector-curvature="0" /></g><g
           id="g262"
           transform="translate(625.3056,426.803)"><path
             d="m 0,0 17.677,0 0,8.505 26.604,0 0,-8.505 26.041,0 0,8.505 26.603,0 0,-8.505 26.04,0 0,8.505 26.605,0 0,-8.505 17.677,0 0,-33.307 8.502,0 0,-33.733 -8.502,0 0,-33.163 8.502,0 0,-33.733 -8.502,0 0,-33.308 -17.677,0 0,-8.503 -26.605,0 0,8.503 -26.04,0 0,-8.503 -26.603,0 0,8.503 -26.041,0 0,-8.503 -26.604,0 0,8.503 -17.677,0 0,33.308 -8.503,0 0,33.733 8.503,0 0,33.163 -8.503,0 0,33.733 8.503,0 L 0,0 Z"
             style="fill:none;stroke:#ff0000;stroke-width:0.80000001;stroke-linecap:butt;stroke-linejoin:miter;stroke-miterlimit:4;stroke-dasharray:none;stroke-opacity:1"
             id="path264"
             inkscape:connector-curvature="0" /></g><g
           id="g266"
           transform="translate(432.79,426.803)"><path
             d="m 0,0 17.675,0 0,8.505 26.605,0 0,-8.505 26.039,0 0,8.505 26.605,0 0,-8.505 26.038,0 0,8.505 26.605,0 0,-8.505 17.676,0 0,-33.307 8.504,0 0,-33.733 -8.504,0 0,-33.163 8.504,0 0,-33.733 -8.504,0 0,-33.308 -17.676,0 0,-8.503 -26.605,0 0,8.503 -26.038,0 0,-8.503 -26.605,0 0,8.503 -26.039,0 0,-8.503 -26.605,0 0,8.503 -17.675,0 0,33.308 -8.505,0 0,33.733 8.505,0 0,33.163 -8.505,0 0,33.733 8.505,0 L 0,0 Z"
             style="fill:none;stroke:#ff0000;stroke-width:0.80000001;stroke-linecap:butt;stroke-linejoin:miter;stroke-miterlimit:4;stroke-dasharray:none;stroke-opacity:1"
             id="path268"
             inkscape:connector-curvature="0" /></g><path
           d="m 889.631,499.029 34.016,0 0,-30.897 -34.016,0 0,30.897 z"
           style="fill:none;stroke:#ff0000;stroke-width:1;stroke-linecap:butt;stroke-linejoin:miter;stroke-miterlimit:10;stroke-dasharray:none;stroke-opacity:1"
           id="path270"
           inkscape:connector-curvature="0" /><g
           id="g272"
           transform="translate(814.48,618.9422)"><path
             d="m 0,0 26.18,0 0,8.509 26.605,0 0,-8.509 26.039,0 0,8.509 26.605,0 0,-8.509 26.038,0 0,8.509 26.605,0 0,-8.509 26.18,0 0,-33.589 -8.504,0 0,-33.166 8.504,0 0,-33.731 -8.504,0 0,-33.164 8.504,0 0,-33.591 -26.18,0 0,-8.502 -26.605,0 0,8.502 -26.038,0 0,-8.502 -26.605,0 0,8.502 -26.039,0 0,-8.502 -26.605,0 0,8.502 -26.18,0 0,33.591 8.505,0 0,33.163 -8.505,0 0,33.732 8.505,0 0,33.166 -8.505,0 L 0,0 Z"
             style="fill:none;stroke:#ff0000;stroke-width:0.80000001;stroke-linecap:butt;stroke-linejoin:miter;stroke-miterlimit:4;stroke-dasharray:none;stroke-opacity:1"
             id="path274"
             inkscape:connector-curvature="0" /></g><g
           id="g276"
           transform="translate(814.6954,820.3479)"><path
             d="m 0,0 26.463,0 0,-8.504 26.039,0 0,8.504 26.605,0 0,-8.504 26.037,0 0,8.504 26.606,0 0,-8.504 26.039,0 0,8.504 26.463,0 0,-26.463 -8.504,0 0,-26.038 8.504,0 0,-26.605 -8.504,0 0,-26.038 8.504,0 0,-26.606 -8.504,0 0,-26.041 8.504,0 0,-26.461 -26.463,0 0,8.505 -26.039,0 0,-8.505 -26.606,0 0,8.505 -26.037,0 0,-8.505 -26.605,0 0,8.505 -26.039,0 0,-8.505 -26.463,0 0,26.461 8.505,0 0,26.041 -8.505,0 0,26.606 8.505,0 0,26.038 -8.505,0 0,26.605 8.505,0 0,26.038 -8.505,0 L 0,0 Z"
             style="fill:none;stroke:#ff0000;stroke-width:0.80000001;stroke-linecap:butt;stroke-linejoin:miter;stroke-miterlimit:4;stroke-dasharray:none;stroke-opacity:1"
             id="path278"
             inkscape:connector-curvature="0" /></g><g
           id="g280"
           transform="translate(1007.213,619.3196)"><path
             d="m 0,0 26.18,0 0,8.509 26.604,0 0,-8.509 26.041,0 0,8.509 26.603,0 0,-8.509 26.04,0 0,8.509 26.605,0 0,-8.509 26.179,0 0,-33.589 -8.502,0 0,-33.166 8.502,0 0,-33.731 -8.502,0 0,-33.164 8.502,0 0,-33.591 -26.179,0 0,-8.502 -26.605,0 0,8.502 -26.04,0 0,-8.502 -26.603,0 0,8.502 -26.041,0 0,-8.502 -26.604,0 0,8.502 -26.18,0 0,33.591 8.503,0 0,33.163 -8.503,0 0,33.732 8.503,0 0,33.166 -8.503,0 L 0,0 Z"
             style="fill:none;stroke:#ff0000;stroke-width:0.80000001;stroke-linecap:butt;stroke-linejoin:miter;stroke-miterlimit:4;stroke-dasharray:none;stroke-opacity:1"
             id="path282"
             inkscape:connector-curvature="0" /></g><g
           id="g284"
           transform="translate(1015.7159,426.803)"><path
             d="m 0,0 17.677,0 0,8.505 26.604,0 0,-8.505 26.041,0 0,8.505 26.603,0 0,-8.505 26.04,0 0,8.505 26.605,0 0,-8.505 17.677,0 0,-33.307 8.502,0 0,-33.733 -8.502,0 0,-33.163 8.502,0 0,-33.733 -8.502,0 0,-33.308 -17.677,0 0,-8.503 -26.605,0 0,8.503 -26.04,0 0,-8.503 -26.603,0 0,8.503 -26.041,0 0,-8.503 -26.604,0 0,8.503 -17.677,0 0,33.308 -8.503,0 0,33.733 8.503,0 0,33.163 -8.503,0 0,33.733 8.503,0 L 0,0 Z"
             style="fill:none;stroke:#ff0000;stroke-width:0.80000001;stroke-linecap:butt;stroke-linejoin:miter;stroke-miterlimit:4;stroke-dasharray:none;stroke-opacity:1"
             id="path286"
             inkscape:connector-curvature="0" /></g><g
           id="g288"
           transform="translate(823.2003,426.803)"><path
             d="m 0,0 17.675,0 0,8.505 26.605,0 0,-8.505 26.039,0 0,8.505 26.605,0 0,-8.505 26.038,0 0,8.505 26.605,0 0,-8.505 17.676,0 0,-33.307 8.504,0 0,-33.733 -8.504,0 0,-33.163 8.504,0 0,-33.733 -8.504,0 0,-33.308 -17.676,0 0,-8.503 -26.605,0 0,8.503 -26.038,0 0,-8.503 -26.605,0 0,8.503 -26.039,0 0,-8.503 -26.605,0 0,8.503 -17.675,0 0,33.308 -8.505,0 0,33.733 8.505,0 0,33.163 -8.505,0 0,33.733 8.505,0 L 0,0 Z"
             style="fill:none;stroke:#ff0000;stroke-width:0.80000001;stroke-linecap:butt;stroke-linejoin:miter;stroke-miterlimit:4;stroke-dasharray:none;stroke-opacity:1"
             id="path290"
             inkscape:connector-curvature="0" /></g><path
           d="m 1277.138,499.029 34.016,0 0,-30.897 -34.016,0 0,30.897 z"
           style="fill:none;stroke:#ff0000;stroke-width:1;stroke-linecap:butt;stroke-linejoin:miter;stroke-miterlimit:10;stroke-dasharray:none;stroke-opacity:1"
           id="path292"
           inkscape:connector-curvature="0" /><g
           id="g294"
           transform="translate(1201.9863,618.9422)"><path
             d="m 0,0 26.18,0 0,8.509 26.605,0 0,-8.509 26.039,0 0,8.509 26.605,0 0,-8.509 26.038,0 0,8.509 26.605,0 0,-8.509 26.18,0 0,-33.589 -8.504,0 0,-33.166 8.504,0 0,-33.731 -8.504,0 0,-33.164 8.504,0 0,-33.591 -26.18,0 0,-8.502 -26.605,0 0,8.502 -26.038,0 0,-8.502 -26.605,0 0,8.502 -26.039,0 0,-8.502 -26.605,0 0,8.502 -26.18,0 0,33.591 8.505,0 0,33.163 -8.505,0 0,33.732 8.505,0 0,33.166 -8.505,0 L 0,0 Z"
             style="fill:none;stroke:#ff0000;stroke-width:0.80000001;stroke-linecap:butt;stroke-linejoin:miter;stroke-miterlimit:4;stroke-dasharray:none;stroke-opacity:1"
             id="path296"
             inkscape:connector-curvature="0" /></g><g
           id="g298"
           transform="translate(1202.2017,820.3479)"><path
             d="m 0,0 26.464,0 0,-8.504 26.038,0 0,8.504 26.605,0 0,-8.504 26.038,0 0,8.504 26.605,0 0,-8.504 26.039,0 0,8.504 26.463,0 0,-26.463 -8.504,0 0,-26.038 8.504,0 0,-26.605 -8.504,0 0,-26.038 8.504,0 0,-26.606 -8.504,0 0,-26.041 8.504,0 0,-26.461 -26.463,0 0,8.505 -26.039,0 0,-8.505 -26.605,0 0,8.505 -26.038,0 0,-8.505 -26.605,0 0,8.505 -26.038,0 0,-8.505 -26.464,0 0,26.461 8.505,0 0,26.041 -8.505,0 0,26.606 8.505,0 0,26.038 -8.505,0 0,26.605 8.505,0 0,26.038 -8.505,0 L 0,0 Z"
             style="fill:none;stroke:#ff0000;stroke-width:0.80000001;stroke-linecap:butt;stroke-linejoin:miter;stroke-miterlimit:4;stroke-dasharray:none;stroke-opacity:1"
             id="path300"
             inkscape:connector-curvature="0" /></g><g
           id="g302"
           transform="translate(1169.9131,230.0126)"><path
             d="m 0,0 0,-26.18 8.509,0 0,-26.604 -8.509,0 0,-26.041 8.509,0 0,-26.603 -8.509,0 0,-26.04 8.509,0 0,-26.605 -8.509,0 0,-26.179 -33.589,0 0,8.502 -33.166,0 0,-8.502 -33.731,0 0,8.502 -33.164,0 0,-8.502 -33.591,0 0,26.179 -8.502,0 0,26.605 8.502,0 0,26.04 -8.502,0 0,26.603 8.502,0 0,26.041 -8.502,0 0,26.604 8.502,0 0,26.18 33.591,0 0,-8.503 33.163,0 0,8.503 33.732,0 0,-8.503 33.166,0 0,8.503 L 0,0 Z"
             style="fill:none;stroke:#ff0000;stroke-width:0.80000001;stroke-linecap:butt;stroke-linejoin:miter;stroke-miterlimit:4;stroke-dasharray:none;stroke-opacity:1"
             id="path304"
             inkscape:connector-curvature="0" /></g><g
           id="g306"
           transform="translate(977.3965,221.5097)"><path
             d="m 0,0 0,-17.677 8.505,0 0,-26.604 -8.505,0 0,-26.041 8.505,0 0,-26.603 -8.505,0 0,-26.04 8.505,0 0,-26.605 -8.505,0 0,-17.677 -33.307,0 0,-8.502 -33.733,0 0,8.502 -33.163,0 0,-8.502 -33.732,0 0,8.502 -33.309,0 0,17.677 -8.503,0 0,26.605 8.503,0 0,26.04 -8.503,0 0,26.603 8.503,0 0,26.041 -8.503,0 0,26.604 8.503,0 0,17.677 33.309,0 0,8.503 33.732,0 0,-8.503 33.163,0 0,8.503 33.733,0 0,-8.503 L 0,0 Z"
             style="fill:none;stroke:#ff0000;stroke-width:0.80000001;stroke-linecap:butt;stroke-linejoin:miter;stroke-miterlimit:4;stroke-dasharray:none;stroke-opacity:1"
             id="path308"
             inkscape:connector-curvature="0" /></g><g
           id="g310"
           transform="translate(790.056,229.6695)"><path
             d="m 0,0 0,-26.465 -8.504,0 0,-26.037 8.504,0 0,-26.604 -8.504,0 0,-26.039 8.504,0 0,-26.606 -8.504,0 0,-26.037 8.504,0 0,-26.464 -26.463,0 0,8.502 -26.037,0 0,-8.502 -26.606,0 0,8.502 -26.039,0 0,-8.502 -26.605,0 0,8.502 -26.042,0 0,-8.502 -26.46,0 0,26.464 8.505,0 0,26.037 -8.505,0 0,26.606 8.505,0 0,26.039 -8.505,0 0,26.604 8.505,0 0,26.037 -8.505,0 0,26.465 26.46,0 0,-8.503 26.042,0 0,8.503 26.605,0 0,-8.503 26.039,0 0,8.503 26.606,0 0,-8.503 26.037,0 0,8.503 L 0,0 Z"
             style="fill:none;stroke:#ff0000;stroke-width:0.80000001;stroke-linecap:butt;stroke-linejoin:miter;stroke-miterlimit:4;stroke-dasharray:none;stroke-opacity:1"
             id="path312"
             inkscape:connector-curvature="0" /></g><path
           d="m 686.592,168.724 22.677,0 0,-62.362 -22.677,0 0,62.362 z"
           style="fill:none;stroke:#ff0000;stroke-width:0.80000001;stroke-linecap:butt;stroke-linejoin:miter;stroke-miterlimit:4;stroke-dasharray:none;stroke-opacity:1"
           id="path314"
           inkscape:connector-curvature="0" /><g
           id="g316"
           transform="translate(643.8896,160.0892)"><path
             d="M 0,0 C 1.396,-0.007 2.45,0.338 3.162,1.035 3.874,1.732 4.232,2.771 4.24,4.153 L 4.249,5.963 -4.306,6.006 -4.313,4.489 C -4.321,3.005 -3.962,1.887 -3.235,1.137 -2.509,0.386 -1.431,0.007 0,0 M 0.037,-1.317 C -1.73,-1.309 -3.08,-0.822 -4.01,0.141 -4.94,1.104 -5.4,2.488 -5.392,4.29 L -5.376,7.256 5.332,7.202 5.315,3.921 C 5.307,2.257 4.839,0.964 3.912,0.047 2.984,-0.871 1.692,-1.326 0.037,-1.317"
             style="fill:#2a4b9a;fill-opacity:1;fill-rule:nonzero;stroke:none"
             id="path318"
             inkscape:connector-curvature="0" /></g><g
           id="g320"
           transform="translate(648.6626,156.6459)"><path
             d="m 0,0 c 0.278,-0.001 0.481,-0.07 0.611,-0.208 0.128,-0.137 0.192,-0.309 0.191,-0.514 -0.001,-0.195 -0.068,-0.362 -0.2,-0.505 -0.133,-0.139 -0.336,-0.21 -0.609,-0.209 -0.274,0.002 -0.477,0.075 -0.611,0.216 -0.133,0.143 -0.199,0.312 -0.198,0.507 0.001,0.205 0.068,0.375 0.203,0.512 C -0.478,-0.065 -0.273,0.002 0,0 m -10.209,-1.267 0.006,1.216 8.027,-0.04 -0.006,-1.216 -8.027,0.04 z"
             style="fill:#2a4b9a;fill-opacity:1;fill-rule:nonzero;stroke:none"
             id="path322"
             inkscape:connector-curvature="0" /></g><g
           id="g324"
           transform="translate(640.6045,147.6107)"><path
             d="m 0,0 c -0.747,0.004 -1.322,0.284 -1.724,0.843 -0.403,0.558 -0.602,1.342 -0.596,2.346 0.005,1.066 0.177,1.895 0.517,2.489 L -0.675,5.672 C -0.872,5.288 -1.028,4.875 -1.143,4.433 -1.257,3.992 -1.315,3.565 -1.317,3.155 -1.32,2.521 -1.222,2.033 -1.021,1.689 -0.82,1.348 -0.512,1.175 -0.097,1.173 0.216,1.171 0.484,1.305 0.708,1.575 0.931,1.845 1.196,2.372 1.503,3.157 1.785,3.901 2.03,4.432 2.239,4.746 2.448,5.06 2.685,5.293 2.95,5.445 3.214,5.598 3.529,5.674 3.896,5.672 4.55,5.668 5.065,5.4 5.441,4.866 5.816,4.332 6.002,3.601 5.998,2.673 5.993,1.809 5.813,0.965 5.458,0.142 L 4.471,0.578 C 4.807,1.383 4.977,2.111 4.98,2.766 4.983,3.342 4.895,3.776 4.715,4.07 4.536,4.364 4.288,4.513 3.971,4.514 3.756,4.515 3.572,4.461 3.42,4.352 3.269,4.243 3.124,4.067 2.985,3.823 2.848,3.58 2.647,3.112 2.385,2.42 2.034,1.469 1.682,0.828 1.328,0.495 0.975,0.162 0.532,-0.002 0,0"
             style="fill:#2a4b9a;fill-opacity:1;fill-rule:nonzero;stroke:none"
             id="path326"
             inkscape:connector-curvature="0" /></g><g
           id="g328"
           transform="translate(639.2485,143.0472)"><path
             d="m 0,0 c -0.001,-0.215 0.014,-0.422 0.044,-0.622 0.031,-0.2 0.063,-0.359 0.097,-0.478 l -0.93,0.005 c -0.063,0.133 -0.114,0.327 -0.154,0.583 -0.04,0.257 -0.06,0.488 -0.059,0.693 0.007,1.552 0.829,2.325 2.465,2.317 L 6.238,2.474 6.244,3.624 6.83,3.621 7.33,2.469 9.041,1.947 9.038,1.244 7.177,1.254 7.166,-1.075 6.221,-1.071 6.232,1.258 1.508,1.282 C 1.025,1.284 0.653,1.172 0.393,0.942 0.133,0.716 0.002,0.4 0,0"
             style="fill:#2a4b9a;fill-opacity:1;fill-rule:nonzero;stroke:none"
             id="path330"
             inkscape:connector-curvature="0" /></g><g
           id="g332"
           transform="translate(639.2241,138.1546)"><path
             d="m 0,0 c -0.003,-0.757 0.201,-1.353 0.614,-1.787 0.413,-0.434 0.993,-0.652 1.74,-0.656 L 3.079,-2.447 3.034,-1.231 C 3.004,-0.265 2.857,0.434 2.594,0.862 2.33,1.29 1.917,1.506 1.355,1.509 0.916,1.512 0.581,1.38 0.35,1.114 0.119,0.851 0.002,0.479 0,0 m -0.871,-2.742 1.144,0.235 0,0.059 c -0.5,0.403 -0.839,0.803 -1.015,1.203 -0.176,0.398 -0.263,0.895 -0.26,1.491 0.004,0.796 0.212,1.419 0.625,1.868 0.412,0.45 0.997,0.673 1.753,0.669 1.622,-0.008 2.465,-1.307 2.53,-3.902 L 3.943,-2.48 4.441,-2.483 c 0.63,-0.003 1.096,0.129 1.397,0.399 0.302,0.27 0.454,0.702 0.457,1.298 0.004,0.669 -0.198,1.427 -0.604,2.273 L 6.624,1.855 C 6.836,1.46 7.002,1.025 7.123,0.554 7.242,0.082 7.301,-0.391 7.298,-0.864 7.293,-1.821 7.078,-2.529 6.65,-2.989 6.224,-3.448 5.541,-3.676 4.604,-3.671 l -5.479,0.027 0.004,0.902 z"
             style="fill:#2a4b9a;fill-opacity:1;fill-rule:nonzero;stroke:none"
             id="path334"
             inkscape:connector-curvature="0" /></g><g
           id="g336"
           transform="translate(638.3091,126.514)"><path
             d="M 0,0 5.193,-0.026 C 5.847,-0.029 6.336,0.117 6.66,0.413 6.984,0.71 7.147,1.175 7.15,1.81 7.155,2.649 6.931,3.266 6.479,3.659 6.026,4.052 5.278,4.251 4.233,4.256 L 0.021,4.277 0.028,5.493 8.055,5.453 8.05,4.465 6.95,4.271 6.95,4.213 C 7.344,3.962 7.649,3.612 7.864,3.16 8.079,2.711 8.185,2.21 8.183,1.658 8.178,0.691 7.941,-0.035 7.473,-0.521 7.003,-1.007 6.256,-1.247 5.231,-1.242 L -0.006,-1.216 0,0 Z"
             style="fill:#2a4b9a;fill-opacity:1;fill-rule:nonzero;stroke:none"
             id="path338"
             inkscape:connector-curvature="0" /></g><g
           id="g340"
           transform="translate(638.1284,119.5921)"><path
             d="M 0,0 C 0.006,1.162 0.368,2.061 1.086,2.694 1.805,3.327 2.818,3.642 4.127,3.635 5.47,3.628 6.506,3.299 7.235,2.648 7.964,1.998 8.326,1.075 8.32,-0.122 8.318,-0.507 8.274,-0.893 8.189,-1.278 8.104,-1.663 8.005,-1.967 7.892,-2.185 l -1.031,0.378 c 0.109,0.269 0.199,0.561 0.272,0.878 0.072,0.318 0.109,0.598 0.11,0.841 C 7.251,1.544 6.215,2.365 4.135,2.375 3.149,2.38 2.391,2.185 1.862,1.789 1.333,1.395 1.066,0.806 1.062,0.024 1.059,-0.645 1.199,-1.331 1.484,-2.035 L 0.407,-2.03 C 0.131,-1.491 -0.004,-0.815 0,0"
             style="fill:#2a4b9a;fill-opacity:1;fill-rule:nonzero;stroke:none"
             id="path342"
             inkscape:connector-curvature="0" /></g><g
           id="g344"
           transform="translate(645.3955,112.5619)"><path
             d="M 0,0 C 0.003,0.645 -0.204,1.159 -0.622,1.545 -1.04,1.93 -1.62,2.159 -2.362,2.231 l -0.021,-4.197 c 0.767,-0.004 1.355,0.164 1.764,0.504 0.41,0.34 0.616,0.827 0.619,1.462 m -7.304,-0.293 c 0.006,1.186 0.372,2.12 1.098,2.804 0.727,0.681 1.731,1.02 3.016,1.013 1.294,-0.005 2.32,-0.33 3.078,-0.97 C 0.647,1.912 1.023,1.055 1.018,-0.02 1.013,-1.025 0.678,-1.819 0.014,-2.402 -0.651,-2.985 -1.525,-3.273 -2.609,-3.269 l -0.769,0.004 0.027,5.531 C -4.293,2.246 -5.009,2.012 -5.5,1.562 -5.991,1.113 -6.238,0.478 -6.242,-0.343 -6.246,-1.206 -6.07,-2.062 -5.713,-2.908 l -1.084,0.006 c -0.183,0.43 -0.314,0.837 -0.392,1.22 -0.08,0.384 -0.118,0.846 -0.115,1.389"
             style="fill:#2a4b9a;fill-opacity:1;fill-rule:nonzero;stroke:none"
             id="path346"
             inkscape:connector-curvature="0" /></g><g
           id="g348"
           transform="translate(731.3504,157.2316)"><path
             d="M 0,0 -8.653,-19.688 0,-39.378 l 0,7.003 20.305,7.998 0,-7.284 8.739,11.693 -8.739,12.25 0,-7.283 L 0.011,-7.007 0,0 Z"
             style="fill:#2a4b9a;fill-opacity:1;fill-rule:nonzero;stroke:none"
             id="path350"
             inkscape:connector-curvature="0" /></g><g
           id="g352"
           transform="translate(586.968,230.0126)"><path
             d="m 0,0 0,-26.18 8.509,0 0,-26.604 -8.509,0 0,-26.041 8.509,0 0,-26.603 -8.509,0 0,-26.04 8.509,0 0,-26.605 -8.509,0 0,-26.179 -33.589,0 0,8.502 -33.166,0 0,-8.502 -33.731,0 0,8.502 -33.164,0 0,-8.502 -33.591,0 0,26.179 -8.502,0 0,26.605 8.502,0 0,26.04 -8.502,0 0,26.603 8.502,0 0,26.041 -8.502,0 0,26.604 8.502,0 0,26.18 33.591,0 0,-8.503 33.163,0 0,8.503 33.732,0 0,-8.503 33.166,0 0,8.503 L 0,0 Z"
             style="fill:none;stroke:#ff0000;stroke-width:0.80000001;stroke-linecap:butt;stroke-linejoin:miter;stroke-miterlimit:4;stroke-dasharray:none;stroke-opacity:1"
             id="path354"
             inkscape:connector-curvature="0" /></g><g
           id="g356"
           transform="translate(394.4514,221.5097)"><path
             d="m 0,0 0,-17.677 8.505,0 0,-26.604 -8.505,0 0,-26.041 8.505,0 0,-26.603 -8.505,0 0,-26.04 8.505,0 0,-26.605 -8.505,0 0,-17.677 -33.307,0 0,-8.502 -33.733,0 0,8.502 -33.163,0 0,-8.502 -33.733,0 0,8.502 -33.308,0 0,17.677 -8.503,0 0,26.605 8.503,0 0,26.04 -8.503,0 0,26.603 8.503,0 0,26.041 -8.503,0 0,26.604 8.503,0 0,17.677 33.308,0 0,8.503 33.733,0 0,-8.503 33.163,0 0,8.503 33.733,0 0,-8.503 L 0,0 Z"
             style="fill:none;stroke:#ff0000;stroke-width:0.80000001;stroke-linecap:butt;stroke-linejoin:miter;stroke-miterlimit:4;stroke-dasharray:none;stroke-opacity:1"
             id="path358"
             inkscape:connector-curvature="0" /></g><g
           id="g360"
           transform="translate(1210.7067,426.803)"><path
             d="m 0,0 17.675,0 0,8.505 26.605,0 0,-8.505 26.039,0 0,8.505 26.605,0 0,-8.505 26.038,0 0,8.505 26.605,0 0,-8.505 17.676,0 0,-33.307 8.504,0 0,-33.733 -8.504,0 0,-33.163 8.504,0 0,-33.733 -8.504,0 0,-33.308 -17.676,0 0,-8.503 -26.605,0 0,8.503 -26.038,0 0,-8.503 -26.605,0 0,8.503 -26.039,0 0,-8.503 -26.605,0 0,8.503 -17.675,0 0,33.308 -8.505,0 0,33.733 8.505,0 0,33.163 -8.505,0 0,33.733 8.505,0 L 0,0 Z"
             style="fill:none;stroke:#ff0000;stroke-width:0.80000001;stroke-linecap:butt;stroke-linejoin:miter;stroke-miterlimit:4;stroke-dasharray:none;stroke-opacity:1"
             id="path362"
             inkscape:connector-curvature="0" /></g><g
           id="g364"
           transform="translate(702.1818,180.0627)"><path
             d="m 0,0 c 0,-2.348 -1.904,-4.252 -4.252,-4.252 -2.348,0 -4.252,1.904 -4.252,4.252 0,2.348 1.904,4.252 4.252,4.252 C -1.904,4.252 0,2.348 0,0 Z"
             style="fill:none;stroke:#ff0000;stroke-width:0.80000001;stroke-linecap:butt;stroke-linejoin:miter;stroke-miterlimit:4;stroke-dasharray:none;stroke-opacity:1"
             id="path366"
             inkscape:connector-curvature="0" /></g><g
           id="g368"
           transform="translate(1285.127,180.0627)"><path
             d="m 0,0 c 0,-2.348 -1.904,-4.252 -4.252,-4.252 -2.348,0 -4.252,1.904 -4.252,4.252 0,2.348 1.904,4.252 4.252,4.252 C -1.904,4.252 0,2.348 0,0 Z"
             style="fill:none;stroke:#ff0000;stroke-width:0.80000001;stroke-linecap:butt;stroke-linejoin:miter;stroke-miterlimit:4;stroke-dasharray:none;stroke-opacity:1"
             id="path370"
             inkscape:connector-curvature="0" /></g><g
           id="g372"
           transform="translate(277.3363,698.9575)"><path
             d="M 0,0 C 2.742,-3.568 5.956,-6.754 9.562,-9.448 20.542,8.549 20.374,12.586 0,0"
             style="fill:#2a4b9a;fill-opacity:1;fill-rule:nonzero;stroke:none"
             id="path374"
             inkscape:connector-curvature="0" /></g><g
           id="g376"
           transform="translate(355.3721,758.2068)"><path
             d="M 0,0 C -2.796,3.716 -6.106,7.023 -9.828,9.811 -21.476,-9.146 -21.486,-13.382 0,0"
             style="fill:#2a4b9a;fill-opacity:1;fill-rule:nonzero;stroke:none"
             id="path378"
             inkscape:connector-curvature="0" /></g><g
           id="g380"
           transform="translate(309.8011,777.3478)"><path
             d="M 0,0 C -4.681,-0.611 -9.154,-1.878 -13.323,-3.714 -2.808,-23.107 0.836,-25.16 0,0"
             style="fill:#2a4b9a;fill-opacity:1;fill-rule:nonzero;stroke:none"
             id="path382"
             inkscape:connector-curvature="0" /></g><g
           id="g384"
           transform="translate(361.1733,709.337)"><path
             d="M 0,0 C 1.794,4.144 3.025,8.586 3.613,13.23 -18.197,13.803 -21.798,11.678 0,0"
             style="fill:#2a4b9a;fill-opacity:1;fill-rule:nonzero;stroke:none"
             id="path386"
             inkscape:connector-curvature="0" /></g><g
           id="g388"
           transform="translate(270.8334,747.2973)"><path
             d="M 0,0 C -1.694,-4.146 -2.84,-8.573 -3.339,-13.196 18.134,-13.737 21.601,-11.581 0,0"
             style="fill:#2a4b9a;fill-opacity:1;fill-rule:nonzero;stroke:none"
             id="path390"
             inkscape:connector-curvature="0" /></g></g></g></g></svg>