<?xml version="1.0" encoding="UTF-8" standalone="no"?>
<!-- Created with Inkscape (http://www.inkscape.org/) -->

<svg
   xmlns:dc="http://purl.org/dc/elements/1.1/"
   xmlns:cc="http://creativecommons.org/ns#"
   xmlns:rdf="http://www.w3.org/1999/02/22-rdf-syntax-ns#"
   xmlns:svg="http://www.w3.org/2000/svg"
   xmlns="http://www.w3.org/2000/svg"
   xmlns:sodipodi="http://sodipodi.sourceforge.net/DTD/sodipodi-0.dtd"
   xmlns:inkscape="http://www.inkscape.org/namespaces/inkscape"
   id="svg2"
   version="1.1"
   inkscape:version="0.91 r13725"
   xml:space="preserve"
   width="1771.65"
   height="1062.9875"
   viewBox="0 0 1771.65 1062.9875"
   sodipodi:docname="brutbox-boxes-teensy.svg"><metadata
     id="metadata8"><rdf:RDF><cc:Work
         rdf:about=""><dc:format>image/svg+xml</dc:format><dc:type
           rdf:resource="http://purl.org/dc/dcmitype/StillImage" /><dc:title></dc:title></cc:Work></rdf:RDF></metadata><defs
     id="defs6"><clipPath
       clipPathUnits="userSpaceOnUse"
       id="clipPath16"><path
         d="m 0,850.39 1417.32,0 L 1417.32,0 0,0 0,850.39 Z"
         id="path18"
         inkscape:connector-curvature="0" /></clipPath><clipPath
       clipPathUnits="userSpaceOnUse"
       id="clipPath78"><path
         d="m 0,850.39 1417.32,0 L 1417.32,0 0,0 0,850.39 Z"
         id="path80"
         inkscape:connector-curvature="0" /></clipPath></defs><sodipodi:namedview
     pagecolor="#ffffff"
     bordercolor="#666666"
     borderopacity="1"
     objecttolerance="10"
     gridtolerance="10"
     guidetolerance="10"
     inkscape:pageopacity="0"
     inkscape:pageshadow="2"
     inkscape:window-width="640"
     inkscape:window-height="480"
     id="namedview4"
     showgrid="false"
     inkscape:zoom="0.22201577"
     inkscape:cx="885.82501"
     inkscape:cy="531.49377"
     inkscape:window-x="0"
     inkscape:window-y="25"
     inkscape:window-maximized="0"
     inkscape:current-layer="g10" /><g
     id="g10"
     inkscape:groupmode="layer"
     inkscape:label="boite_mere_130.65"
     transform="matrix(1.25,0,0,-1.25,0,1062.9875)"><g
       id="g12"><g
         id="g14"
         clip-path="url(#clipPath16)"><g
           id="g20"
           transform="translate(53,735.5629)"><path
             d="M 0,0 -19.812,-0.062 -19.875,41.125 0,41.125 0,0 Z m 2.006,44.709 -23.67,0 c -1.049,0 -1.899,-0.886 -1.899,-1.979 l 0,-44.385 c 0,-1.094 0.85,-1.98 1.899,-1.98 l 23.67,0 c 1.049,0 1.899,0.886 1.899,1.98 l 0,44.385 c 0,1.093 -0.85,1.979 -1.899,1.979"
             style="fill:#ffed00;fill-opacity:1;fill-rule:nonzero;stroke:none"
             id="path22"
             inkscape:connector-curvature="0" /></g><g
           id="g24"
           transform="translate(335.125,735.5629)"><path
             d="M 0,0 -19.812,-0.062 -19.875,41.125 0,41.125 0,0 Z m 2.006,44.709 -23.67,0 c -1.049,0 -1.899,-0.886 -1.899,-1.979 l 0,-44.385 c 0,-1.094 0.85,-1.98 1.899,-1.98 l 23.67,0 c 1.049,0 1.899,0.886 1.899,1.98 l 0,44.385 c 0,1.093 -0.85,1.979 -1.899,1.979"
             style="fill:#ffed00;fill-opacity:1;fill-rule:nonzero;stroke:none"
             id="path26"
             inkscape:connector-curvature="0" /></g><g
           id="g28"
           transform="translate(93.3036,735.5629)"><path
             d="M 0,0 -19.812,-0.062 -19.875,41.125 0,41.125 0,0 Z m 2.006,44.709 -23.67,0 c -1.049,0 -1.899,-0.886 -1.899,-1.979 l 0,-44.385 c 0,-1.094 0.85,-1.98 1.899,-1.98 l 23.67,0 c 1.049,0 1.899,0.886 1.899,1.98 l 0,44.385 c 0,1.093 -0.85,1.979 -1.899,1.979"
             style="fill:#ffed00;fill-opacity:1;fill-rule:nonzero;stroke:none"
             id="path30"
             inkscape:connector-curvature="0" /></g><g
           id="g32"
           transform="translate(133.6071,735.5629)"><path
             d="M 0,0 -19.812,-0.062 -19.875,41.125 0,41.125 0,0 Z m 2.006,44.709 -23.67,0 c -1.049,0 -1.899,-0.886 -1.899,-1.979 l 0,-44.385 c 0,-1.094 0.85,-1.98 1.899,-1.98 l 23.67,0 c 1.049,0 1.899,0.886 1.899,1.98 l 0,44.385 c 0,1.093 -0.85,1.979 -1.899,1.979"
             style="fill:#ffed00;fill-opacity:1;fill-rule:nonzero;stroke:none"
             id="path34"
             inkscape:connector-curvature="0" /></g><g
           id="g36"
           transform="translate(173.9107,735.5629)"><path
             d="M 0,0 -19.812,-0.062 -19.875,41.125 0,41.125 0,0 Z m 2.006,44.709 -23.67,0 c -1.049,0 -1.899,-0.886 -1.899,-1.979 l 0,-44.385 c 0,-1.094 0.85,-1.98 1.899,-1.98 l 23.67,0 c 1.049,0 1.899,0.886 1.899,1.98 l 0,44.385 c 0,1.093 -0.85,1.979 -1.899,1.979"
             style="fill:#ffed00;fill-opacity:1;fill-rule:nonzero;stroke:none"
             id="path38"
             inkscape:connector-curvature="0" /></g><g
           id="g40"
           transform="translate(214.2143,735.5629)"><path
             d="M 0,0 -19.812,-0.062 -19.875,41.125 0,41.125 0,0 Z m 2.006,44.709 -23.67,0 c -1.049,0 -1.899,-0.886 -1.899,-1.979 l 0,-44.385 c 0,-1.094 0.85,-1.98 1.899,-1.98 l 23.67,0 c 1.049,0 1.899,0.886 1.899,1.98 l 0,44.385 c 0,1.093 -0.85,1.979 -1.899,1.979"
             style="fill:#ffed00;fill-opacity:1;fill-rule:nonzero;stroke:none"
             id="path42"
             inkscape:connector-curvature="0" /></g><g
           id="g44"
           transform="translate(254.5179,735.5629)"><path
             d="M 0,0 -19.812,-0.062 -19.875,41.125 0,41.125 0,0 Z m 2.006,44.709 -23.67,0 c -1.049,0 -1.899,-0.886 -1.899,-1.979 l 0,-44.385 c 0,-1.094 0.85,-1.98 1.899,-1.98 l 23.67,0 c 1.049,0 1.899,0.886 1.899,1.98 l 0,44.385 c 0,1.093 -0.85,1.979 -1.899,1.979"
             style="fill:#ffed00;fill-opacity:1;fill-rule:nonzero;stroke:none"
             id="path46"
             inkscape:connector-curvature="0" /></g><g
           id="g48"
           transform="translate(294.8214,735.5629)"><path
             d="M 0,0 -19.812,-0.062 -19.875,41.125 0,41.125 0,0 Z m 2.006,44.709 -23.67,0 c -1.049,0 -1.899,-0.886 -1.899,-1.979 l 0,-44.385 c 0,-1.094 0.85,-1.98 1.899,-1.98 l 23.67,0 c 1.049,0 1.899,0.886 1.899,1.98 l 0,44.385 c 0,1.093 -0.85,1.979 -1.899,1.979"
             style="fill:#ffed00;fill-opacity:1;fill-rule:nonzero;stroke:none"
             id="path50"
             inkscape:connector-curvature="0" /></g></g></g><g
       id="g52"
       transform="translate(378.2305,847.39)"><path
         d="m 0,0 28.36,0 0,-8.504 28.319,0 0,8.504 28.375,0 0,-8.504 28.317,0 0,8.504 28.375,0 0,-8.504 28.318,0 0,8.504 28.375,0 0,-8.504 28.319,0 0,8.504 28.375,0 0,-8.504 28.317,0 0,8.504 28.375,0 0,-8.504 28.319,0 0,8.504 28.36,0 0,-26.336 -8.502,0 0,-26.293 8.502,0 0,-26.35 -8.502,0 0,-26.292 8.502,0 0,-26.351 -8.502,0 0,-26.294 8.502,0 0,-26.336 -28.36,0 0,8.504 -28.319,0 0,-8.504 -28.375,0 0,8.504 -28.317,0 0,-8.504 -28.375,0 0,8.504 -28.319,0 0,-8.504 -28.375,0 0,8.504 -28.318,0 0,-8.504 -28.375,0 0,8.504 -28.317,0 0,-8.504 -28.375,0 0,8.504 -28.319,0 0,-8.504 -28.36,0 0,26.336 8.504,0 0,26.294 -8.504,0 0,26.351 8.504,0 0,26.292 -8.504,0 0,26.35 8.504,0 0,26.293 -8.504,0 L 0,0 Z"
         style="fill:none;stroke:#e52621;stroke-width:1;stroke-linecap:butt;stroke-linejoin:miter;stroke-miterlimit:10;stroke-dasharray:none;stroke-opacity:1"
         id="path54"
         inkscape:connector-curvature="0" /></g><g
       id="g56"
       transform="translate(746.7344,651.0707)"><path
         d="m 0,0 0,-33.463 -8.503,0 0,-33.42 8.503,0 0,-33.477 -8.503,0 0,-33.42 8.503,0 0,-33.464 -28.332,0 0,-8.504 -28.375,0 0,8.504 -28.318,0 0,-8.504 -28.374,0 0,8.504 -28.319,0 0,-8.504 -28.374,0 0,8.504 -28.319,0 0,-8.504 -28.375,0 0,8.504 -28.318,0 0,-8.504 -28.375,0 0,8.504 -28.318,0 0,-8.504 -28.375,0 0,8.504 -28.332,0 0,33.464 8.504,0 0,33.42 -8.504,0 0,33.477 8.504,0 0,33.42 -8.504,0 0,33.463 26.587,0 0,8.503 26.333,0 0,-8.503 26.275,0 0,8.503 26.129,0 0,-8.503 26.684,0 0,8.503 25.924,0 0,-8.503 52.928,0 0,8.503 26.026,0 0,-8.503 26.859,0 0,8.503 25.851,0 0,-8.503 26.583,0 0,8.503 26.026,0 0,-8.503 L 0,0 Z"
         style="fill:none;stroke:#e52621;stroke-width:1;stroke-linecap:butt;stroke-linejoin:miter;stroke-miterlimit:10;stroke-dasharray:none;stroke-opacity:1"
         id="path58"
         inkscape:connector-curvature="0" /></g><g
       id="g60"
       transform="translate(202.9097,458.39)"><path
         d="m 0,0 17.803,0 0,8.505 26.35,0 0,-8.505 26.293,0 0,8.505 26.35,0 0,-8.505 26.294,0 0,8.505 26.35,0 0,-8.505 17.804,0 0,-33.435 8.503,0 0,-33.476 -8.503,0 0,-33.42 8.503,0 0,-33.479 -8.503,0 0,-33.435 -17.804,0 0,-8.502 -26.35,0 0,8.502 -26.294,0 0,-8.502 -26.35,0 0,8.502 -26.293,0 0,-8.502 -26.351,0 0,8.502 -17.802,0 0,33.435 -8.505,0 0,33.479 8.505,0 0,33.42 -8.505,0 0,33.476 8.505,0 L 0,0 Z"
         style="fill:none;stroke:#e52621;stroke-width:1;stroke-linecap:butt;stroke-linejoin:miter;stroke-miterlimit:10;stroke-dasharray:none;stroke-opacity:1"
         id="path62"
         inkscape:connector-curvature="0" /></g><path
       d="m 56.325,368.88 -29.764,0 0,24.095 29.764,0 0,-24.095 z"
       style="fill:none;stroke:#e52621;stroke-width:1;stroke-linecap:butt;stroke-linejoin:miter;stroke-miterlimit:10;stroke-dasharray:none;stroke-opacity:1"
       id="path64"
       inkscape:connector-curvature="0" /><g
       id="g66"
       transform="translate(13.7178,457.519)"><path
         d="m 0,0 17.804,0 0,8.505 26.35,0 0,-8.505 26.294,0 0,8.505 26.349,0 0,-8.505 26.293,0 0,8.505 26.35,0 0,-8.505 17.804,0 0,-33.435 8.504,0 0,-33.476 -8.504,0 0,-33.42 8.504,0 0,-33.479 -8.504,0 0,-33.435 -17.804,0 0,-8.502 -26.35,0 0,8.502 -26.293,0 0,-8.502 -26.349,0 0,8.502 -26.294,0 0,-8.502 -26.35,0 0,8.502 -17.804,0 0,33.435 -8.504,0 0,33.479 8.504,0 0,33.42 -8.504,0 0,33.476 8.504,0 L 0,0 Z"
         style="fill:none;stroke:#e52621;stroke-width:1;stroke-linecap:butt;stroke-linejoin:miter;stroke-miterlimit:10;stroke-dasharray:none;stroke-opacity:1"
         id="path68"
         inkscape:connector-curvature="0" /></g><g
       id="g70"
       transform="translate(372.4297,651.4041)"><path
         d="m 0,0 0,-33.463 -8.502,0 0,-33.42 8.502,0 0,-33.477 -8.502,0 0,-33.42 8.502,0 0,-33.464 -28.332,0 0,-8.504 -28.374,0 0,8.504 -28.319,0 0,-8.504 -28.374,0 0,8.504 -28.319,0 0,-8.504 -28.374,0 0,8.504 -28.319,0 0,-8.504 -28.375,0 0,8.504 -28.318,0 0,-8.504 -28.375,0 0,8.504 -28.318,0 0,-8.504 -28.375,0 0,8.504 -28.332,0 0,33.464 8.504,0 0,33.42 -8.504,0 0,33.477 8.504,0 0,33.42 -8.504,0 0,33.463 26.587,0 0,8.503 26.333,0 0,-8.503 26.275,0 0,8.503 26.129,0 0,-8.503 26.684,0 0,8.503 25.924,0 0,-8.503 52.928,0 0,8.503 26.026,0 0,-8.503 26.859,0 0,8.503 25.851,0 0,-8.503 26.583,0 0,8.503 26.026,0 0,-8.503 L 0,0 Z"
         style="fill:none;stroke:#e52621;stroke-width:1;stroke-linecap:butt;stroke-linejoin:miter;stroke-miterlimit:10;stroke-dasharray:none;stroke-opacity:1"
         id="path72"
         inkscape:connector-curvature="0" /></g><g
       id="g74"><g
         id="g76"
         clip-path="url(#clipPath78)"><g
           id="g82"
           transform="translate(212.8847,552.9694)"><path
             d="m 0,0 14.261,-4.371 -0.015,3.975 7.617,-2.367 c 0.848,1.459 4.114,7.08 4.451,7.658 l 0.328,0.558 6.812,-6.812 5.307,5.304 -8.201,8.202 0.522,0.937 c 0.788,1.423 1.532,2.766 2.409,3.6 2.844,2.709 4.116,5.904 5.066,8.953 l 0.695,2.229 -7.164,2.234 -0.695,-2.23 c -0.792,-2.542 -1.549,-4.298 -3.077,-5.751 -0.417,-0.397 -0.81,-0.826 -1.202,-1.311 l -0.46,-0.57 -3.818,6.694 -5.416,-3.089 -4.504,2.815 c -2.614,1.562 -6.045,2.457 -9.413,2.457 l -2.301,-0.053 -4.093,-5.988 -4.314,0.863 c -0.942,0.189 -2.109,0.886 -3.345,1.623 -1.692,1.011 -3.608,2.155 -5.915,2.616 l -4.277,0.855 -0.254,-5.407 -0.63,0.15 c -1.17,0.388 -2.239,0.761 -3.276,1.125 -1.805,0.634 -3.673,1.29 -6.132,2.036 l -2.234,0.676 -0.429,-1.416 -6.086,1.371 -4.337,-19.258 -0.924,17.978 -6.66,-0.344 -2.87,0.028 c -1.446,0.013 -3.298,0.232 -5.091,0.444 -1.943,0.229 -3.774,0.444 -5.404,0.461 l -1.076,0.014 -0.92,-0.56 c -0.066,-0.04 -0.123,-0.083 -0.18,-0.124 l -0.308,-0.216 -4.232,0.651 c -1.129,0.174 -2.494,0.909 -3.939,1.686 -1.898,1.022 -4.047,2.179 -6.567,2.567 l -4.307,0.665 -0.017,-4.36 c -0.007,-1.901 0.023,-4.717 0.052,-7.453 l 0.026,-2.575 -0.354,0 0,-1.466 -1.968,-0.12 1.03,-16.901 20.871,3.133 6.102,-0.286 0.028,0.562 8.17,1.033 -1.024,8.108 1.897,0 0.471,-9.159 13.713,1.026 3.792,16.835 0.515,-0.157 c 0.676,-0.205 1.231,-0.38 1.742,-0.543 l 0.425,-0.136 -3.694,-18.4 7.357,-1.478 3.075,15.313 -0.001,0 0.884,4.398 0.074,-2.465 c 0.505,-0.164 1.05,-0.337 1.616,-0.512 l 0.369,-0.114 -0.055,-1.257 -1.932,-0.033 0.265,-15.861 20.447,2.146 0.197,7.161 0.896,-2.663 C -1.303,4.367 -1.005,3.457 -0.777,2.672 L 0,0 Z m 15.266,-5.725 -16.075,4.927 -0.875,3.006 -0.062,-2.274 -22.405,-2.353 -0.201,12.06 -2.329,-11.598 -9.317,1.873 3.715,18.502 c -0.253,0.08 -0.516,0.163 -0.787,0.246 L -36.788,2.158 -52.26,1 l -0.06,1.159 -7.551,-0.954 -0.037,-0.721 -7,0.339 -21.852,-3.291 -1.158,18.989 2.027,0.125 0,1.524 0.344,0 -0.016,1.564 c -0.029,2.742 -0.059,5.563 -0.052,7.468 l 0.022,5.522 5.454,-0.842 c 2.69,-0.415 4.92,-1.615 6.888,-2.675 1.368,-0.736 2.659,-1.431 3.618,-1.579 l 3.835,-0.589 c 0.068,0.05 0.138,0.099 0.215,0.146 l 1.163,0.708 1.362,-0.018 c 1.683,-0.017 3.54,-0.236 5.505,-0.468 1.771,-0.209 3.597,-0.424 4.989,-0.437 l 2.839,-0.029 7.628,0.396 0.602,-11.703 2.957,13.128 6.153,-1.387 0.45,1.484 3.191,-0.967 c 2.48,-0.752 4.358,-1.412 6.173,-2.049 0.844,-0.296 1.709,-0.599 2.634,-0.91 l 0.251,5.307 5.417,-1.084 c 2.476,-0.494 4.47,-1.684 6.23,-2.735 1.162,-0.694 2.257,-1.349 3.03,-1.504 l 3.666,-0.733 4.008,5.865 2.833,0.066 c 3.548,0 7.166,-0.947 9.931,-2.598 l 0.603,-0.363 3.413,-2.145 5.764,3.286 3.596,-6.304 c 0.267,0.302 0.539,0.583 0.822,0.853 1.37,1.303 2.068,2.939 2.811,5.323 l 0.993,3.185 9.073,-2.83 -0.992,-3.182 C 38.521,22.162 37.189,18.826 34.18,15.959 33.414,15.231 32.707,13.953 31.957,12.6 L 31.801,12.32 40.175,3.945 33.454,-2.773 26.852,3.829 C 25.761,1.955 22.527,-3.609 22.527,-3.609 l -0.2,-0.345 -7.076,2.199 0.015,-3.97 z"
             style="fill:none;stroke:#ffed00;stroke-width:1;stroke-linecap:butt;stroke-linejoin:miter;stroke-miterlimit:10;stroke-dasharray:none;stroke-opacity:1"
             id="path84"
             inkscape:connector-curvature="0" /></g><g
           id="g86"
           transform="translate(129.8676,558.2585)"><path
             d="M 0,0 -0.45,7.368 11.649,7.369 C 11.684,5.314 11.713,3.613 11.746,1.764 L 0,0 Z m 1.617,15.192 c -0.02,1.91 -0.041,3.872 -0.049,5.524 1.077,-0.395 2.152,-0.974 3.269,-1.574 1.335,-0.719 2.705,-1.457 4.162,-1.908 -0.042,-1.009 0.182,-2.037 0.389,-2.984 0.51,-2.34 0.569,-3.308 -0.7,-4.047 l -7.026,0 C 1.655,11.617 1.636,13.379 1.617,15.192 M 14.46,8.81 l -0.023,1.394 -2.174,0 c 0.559,1.571 0.185,3.316 -0.106,4.65 -0.239,1.097 -0.487,2.232 -0.204,2.875 l 0.741,1.69 -1.824,0.28 c -1.525,0.236 -3.062,1.063 -4.69,1.939 -1.818,0.978 -3.698,1.989 -5.815,2.315 l -1.627,0.251 -0.007,-1.646 c -0.006,-1.894 0.023,-4.696 0.052,-7.396 0.019,-1.802 0.037,-3.554 0.044,-4.96 l -0.371,0 0,-1.328 -1.831,-0.111 0.733,-12.027 17.266,2.594 -0.022,1.242 C 14.552,3.355 14.514,5.606 14.46,8.81"
             style="fill:#2b4c9b;fill-opacity:1;fill-rule:nonzero;stroke:none"
             id="path88"
             inkscape:connector-curvature="0" /></g><g
           id="g90"
           transform="translate(171.0761,561.5963)"><path
             d="M 0,0 -4.62,-0.347 -5.453,15.863 -8.284,15.717 -7.302,-3.391 2.304,-2.67 6.551,16.182 3.785,16.805 0,0 Z"
             style="fill:#2b4c9b;fill-opacity:1;fill-rule:nonzero;stroke:none"
             id="path92"
             inkscape:connector-curvature="0" /></g><g
           id="g94"
           transform="translate(205.1142,559.1306)"><path
             d="M 0,0 -10.33,-1.084 -10.435,5.237 0.13,4.768 0,0 Z m -8.265,12.408 c 0.055,1.608 0.111,3.252 0.166,4.663 0.878,-0.386 1.755,-0.911 2.663,-1.453 1.145,-0.683 2.318,-1.384 3.579,-1.851 -0.059,-0.886 0.096,-1.789 0.239,-2.622 0.372,-2.166 0.33,-2.896 -0.673,-3.433 l -6.132,0.273 c 0.05,1.268 0.103,2.825 0.158,4.423 m 9.441,-0.783 c -0.167,0.972 -0.34,1.977 -0.081,2.5 l 0.819,1.655 -1.811,0.363 c -1.335,0.266 -2.671,1.064 -4.085,1.909 -1.604,0.958 -3.263,1.948 -5.176,2.33 l -1.615,0.323 -0.079,-1.645 c -0.08,-1.68 -0.165,-4.158 -0.246,-6.555 -0.054,-1.588 -0.107,-3.135 -0.157,-4.394 l -0.189,0.008 -0.059,-1.335 -1.792,-0.031 0.183,-10.98 15.878,1.666 0.275,10.037 -1.885,0.083 c 0.478,1.37 0.222,2.89 0.02,4.066"
             style="fill:#2b4c9b;fill-opacity:1;fill-rule:nonzero;stroke:none"
             id="path96"
             inkscape:connector-curvature="0" /></g><g
           id="g98"
           transform="translate(149.2519,570.0349)"><path
             d="M 0,0 C -0.078,0.225 -0.157,0.447 -0.236,0.67 -1.044,2.953 -1.549,4.567 -0.996,5.284 0.269,5.234 1.776,5.057 3.36,4.87 4.831,4.697 6.34,4.52 7.739,4.437 L 8.221,-0.006 0,0 Z M 10.288,7.213 9.03,7.226 C 7.458,7.242 5.544,7.468 3.692,7.686 1.813,7.907 0.038,8.116 -1.471,8.132 L -1.876,8.137 -2.223,7.926 C -5.175,6.128 -3.918,2.577 -2.908,-0.275 -2.393,-1.729 -1.861,-3.231 -1.897,-4.28 -1.961,-6.13 -2.056,-7.978 -2.15,-9.824 l -0.124,-2.473 2.831,-0.137 0.124,2.464 c 0.095,1.864 0.191,3.727 0.255,5.592 0.017,0.5 -0.033,1.017 -0.129,1.543 l 3.633,-0.003 1.108,-8.777 2.812,0.355 -1.063,8.42 4.084,-0.003 -1.093,10.056 z"
             style="fill:#2b4c9b;fill-opacity:1;fill-rule:nonzero;stroke:none"
             id="path100"
             inkscape:connector-curvature="0" /></g><g
           id="g102"
           transform="translate(192.2993,571.6422)"><path
             d="m 0,0 0.823,2.713 c -2.341,0.71 -4.154,1.347 -5.908,1.963 -1.788,0.628 -3.637,1.277 -6.046,2.008 l -0.822,-2.713 c 1.557,-0.473 2.872,-0.911 4.1,-1.334 l -3.64,-18.125 2.78,-0.559 3.562,17.743 C -3.628,1.164 -2.013,0.611 0,0"
             style="fill:#2b4c9b;fill-opacity:1;fill-rule:nonzero;stroke:none"
             id="path104"
             inkscape:connector-curvature="0" /></g><g
           id="g106"
           transform="translate(240.2082,564.8693)"><path
             d="m 0,0 c 0.266,0.449 0.524,0.904 0.791,1.352 0.314,0.528 0.616,1.072 0.918,1.617 0.879,1.585 1.708,3.082 2.842,4.161 2.583,2.459 3.65,5.398 4.448,7.959 L 6.293,15.933 C 5.41,13.098 4.483,10.98 2.597,9.184 1.163,7.82 0.194,6.082 -0.74,4.397 l -4.625,8.106 -2.461,-1.404 5.448,-9.55 c -1.426,-2.411 -2.839,-4.831 -4.245,-7.255 l -2.085,-3.588 2.449,-1.428 2.088,3.595 c 0.993,1.712 1.998,3.416 2.999,5.124 L 6.125,-9.3 8.13,-7.296 0.417,0.417 0,0 Z"
             style="fill:#2b4c9b;fill-opacity:1;fill-rule:nonzero;stroke:none"
             id="path108"
             inkscape:connector-curvature="0" /></g><g
           id="g110"
           transform="translate(226.5024,558.9215)"><path
             d="m 0,0 c -0.188,-0.413 -0.374,-0.824 -0.559,-1.231 l -2.348,0.101 0.167,0.603 0.965,-0.476 1.412,7.051 -0.816,-0.269 3.409,1.22 C 2.299,6.826 2.37,6.663 2.438,6.513 2.498,6.381 2.581,6.195 2.622,6.078 1.823,4.01 0.896,1.972 0,0 m -10.9,2.664 c -0.504,1.475 -1.018,2.985 -1.454,4.411 l 1.899,-0.014 0.756,-0.367 0.469,-6.521 1.657,0 -0.358,-0.044 0.128,-1.049 -1.929,0.083 c -0.339,1.077 -0.745,2.263 -1.168,3.501 m 7.484,-2.933 -0.229,-0.83 -3.429,0.148 -0.136,1.124 0.873,0 -0.885,5.318 2.223,-1.079 1.802,0.645 -0.467,-5.128 0.597,-0.295 -0.349,0.097 z m -10.731,14.766 c 0,0.138 0.023,0.271 0.056,0.399 0.011,-0.062 0.02,-0.125 0.034,-0.187 0.159,0.749 0.823,1.31 1.619,1.31 0.399,0 0.759,-0.146 1.045,-0.381 0.022,-0.021 0.048,-0.039 0.068,-0.062 l 0.003,0.004 c 0.33,-0.303 0.541,-0.734 0.541,-1.217 0,-0.915 -0.742,-1.657 -1.657,-1.657 -0.106,0 -0.21,0.012 -0.311,0.031 0.209,-0.151 0.43,-0.285 0.672,-0.384 2.243,-0.911 4.648,0.698 4.664,3.119 0.006,0.925 -0.403,1.808 -1.062,2.434 1.779,-0.206 3.547,-0.725 4.924,-1.504 l 0.707,-0.824 c -0.055,-0.226 -0.089,-0.461 -0.079,-0.713 0.037,-0.884 0.593,-1.712 1.397,-2.081 0.424,-0.194 0.858,-0.262 1.271,-0.227 L 0.261,11.955 C 1.011,10.609 1.509,9.254 1.999,7.68 l -6.956,-2.488 -5.257,2.552 -2.354,0.04 c -0.006,0.019 -0.013,0.039 -0.018,0.058 l -1.726,3.364 1.216,1.779 c -0.613,0.231 -1.051,0.818 -1.051,1.512 M 5.022,7.679 C 4.933,7.878 4.847,8.067 4.797,8.229 l 0.001,0 C 4.789,8.259 4.78,8.288 4.77,8.317 4.192,10.202 2.904,13.037 1.958,14.703 L 1.951,14.702 c 0.018,0.143 0.044,0.283 0.039,0.435 -0.024,0.603 -0.302,1.169 -0.723,1.593 0.063,-0.143 0.102,-0.299 0.102,-0.465 0,-0.635 -0.514,-1.15 -1.149,-1.15 -0.635,0 -1.15,0.515 -1.15,1.15 0,0.584 0.443,1.048 1.008,1.121 -0.399,0.09 -0.795,0.076 -1.164,-0.019 l -0.818,1.357 c -2.35,1.404 -5.532,2.183 -8.539,2.124 l -0.724,-0.019 -2.22,-3.247 c -0.129,-0.159 -0.249,-0.327 -0.348,-0.51 l -3.876,-5.67 2.342,-4.487 c 0.488,-1.664 1.098,-3.445 1.688,-5.169 0.544,-1.593 1.058,-3.096 1.423,-4.351 l 0.284,-0.977 13.118,-0.564 0.392,0.881 c 0.306,0.689 0.624,1.386 0.945,2.092 0.935,2.058 1.902,4.186 2.745,6.387 0.371,0.97 -0.019,1.834 -0.304,2.465"
             style="fill:#2b4c9b;fill-opacity:1;fill-rule:nonzero;stroke:none"
             id="path112"
             inkscape:connector-curvature="0" /></g><g
           id="g114"
           transform="translate(52.9649,735.5027)"><path
             d="M 0,0 -19.793,-0.065 -19.842,41.103 0,41.103 0,0 Z"
             style="fill:none;stroke:#e52621;stroke-width:1;stroke-linecap:butt;stroke-linejoin:miter;stroke-miterlimit:10;stroke-dasharray:none;stroke-opacity:1"
             id="path116"
             inkscape:connector-curvature="0" /></g><path
           d="m 93.281,735.503 -19.842,0 0,41.102 19.842,0 0,-41.102 z"
           style="fill:none;stroke:#e52621;stroke-width:1;stroke-linecap:butt;stroke-linejoin:miter;stroke-miterlimit:10;stroke-dasharray:none;stroke-opacity:1"
           id="path118"
           inkscape:connector-curvature="0" /><path
           d="m 133.598,735.503 -19.842,0 0,41.102 19.842,0 0,-41.102 z"
           style="fill:none;stroke:#e52621;stroke-width:1;stroke-linecap:butt;stroke-linejoin:miter;stroke-miterlimit:10;stroke-dasharray:none;stroke-opacity:1"
           id="path120"
           inkscape:connector-curvature="0" /><path
           d="m 173.914,735.503 -19.842,0 0,41.103 19.842,0 0,-41.103 z"
           style="fill:none;stroke:#e52621;stroke-width:1;stroke-linecap:butt;stroke-linejoin:miter;stroke-miterlimit:10;stroke-dasharray:none;stroke-opacity:1"
           id="path122"
           inkscape:connector-curvature="0" /><path
           d="m 214.23,735.503 -19.842,0 0,41.102 19.842,0 0,-41.102 z"
           style="fill:none;stroke:#e52621;stroke-width:1;stroke-linecap:butt;stroke-linejoin:miter;stroke-miterlimit:10;stroke-dasharray:none;stroke-opacity:1"
           id="path124"
           inkscape:connector-curvature="0" /><path
           d="m 254.547,735.503 -19.842,0 0,41.103 19.842,0 0,-41.103 z"
           style="fill:none;stroke:#e52621;stroke-width:1;stroke-linecap:butt;stroke-linejoin:miter;stroke-miterlimit:10;stroke-dasharray:none;stroke-opacity:1"
           id="path126"
           inkscape:connector-curvature="0" /><path
           d="m 294.863,735.503 -19.842,0 0,41.103 19.842,0 0,-41.103 z"
           style="fill:none;stroke:#e52621;stroke-width:1;stroke-linecap:butt;stroke-linejoin:miter;stroke-miterlimit:10;stroke-dasharray:none;stroke-opacity:1"
           id="path128"
           inkscape:connector-curvature="0" /><path
           d="m 335.18,735.503 -19.842,0 0,41.103 19.842,0 0,-41.103 z"
           style="fill:none;stroke:#e52621;stroke-width:1;stroke-linecap:butt;stroke-linejoin:miter;stroke-miterlimit:10;stroke-dasharray:none;stroke-opacity:1"
           id="path130"
           inkscape:connector-curvature="0" /><g
           id="g132"
           transform="translate(371.917,663.9637)"><path
             d="m 0,0 0,0 -26.526,0 0,8.502 -25.976,0 0,-8.502 -26.611,0 0,8.502 -26.033,0 0,-8.502 -26.605,0 0,8.502 -26.032,0 0,-8.57 -52.987,0 0,8.57 -26.009,0 0,-8.502 -26.602,0 0,8.502 -26.034,0 0,-8.502 -26.602,0 0,8.502 -26.091,0 0,-8.502 -26.396,0 0,-0.003 0,26.324 8.501,0 0,26.283 -8.501,0 0,26.341 8.501,0 0,26.284 -8.501,0 0,26.342 8.501,0 0,26.283 -8.501,0 0,26.327 26.526,0 0,-8.502 25.977,0 0,8.502 26.61,0 0,-8.502 26.033,0 0,8.502 26.605,0 0,-8.502 26.032,0 0,8.57 52.987,0 0,-8.57 26.009,0 0,8.502 26.602,0 0,-8.502 26.034,0 0,8.502 26.602,0 0,-8.502 26.091,0 0,8.502 26.396,0 0,-26.327 -8.499,0 0,-26.283 8.499,0 0,-26.342 -8.499,0 0,-26.284 8.499,0 0,-26.341 -8.499,0 0,-26.283 8.499,0 L 0,-0.003 0,0 Z"
             style="fill:none;stroke:#e52621;stroke-width:1;stroke-linecap:butt;stroke-linejoin:miter;stroke-miterlimit:10;stroke-dasharray:none;stroke-opacity:1"
             id="path134"
             inkscape:connector-curvature="0" /></g><g
           id="g136"
           transform="translate(42.8151,815.5463)"><path
             d="m 0,0 c 0,-2.348 -1.904,-4.252 -4.252,-4.252 -2.348,0 -4.252,1.904 -4.252,4.252 0,2.348 1.904,4.252 4.252,4.252 C -1.904,4.252 0,2.348 0,0 Z"
             style="fill:none;stroke:#e52621;stroke-width:1;stroke-linecap:butt;stroke-linejoin:miter;stroke-miterlimit:10;stroke-dasharray:none;stroke-opacity:1"
             id="path138"
             inkscape:connector-curvature="0" /></g><g
           id="g140"
           transform="translate(42.8151,696.7744)"><path
             d="m 0,0 c 0,-2.348 -1.904,-4.252 -4.252,-4.252 -2.348,0 -4.252,1.904 -4.252,4.252 0,2.348 1.904,4.252 4.252,4.252 C -1.904,4.252 0,2.348 0,0 Z"
             style="fill:none;stroke:#e52621;stroke-width:1;stroke-linecap:butt;stroke-linejoin:miter;stroke-miterlimit:10;stroke-dasharray:none;stroke-opacity:1"
             id="path142"
             inkscape:connector-curvature="0" /></g><g
           id="g144"
           transform="translate(196.1693,696.7744)"><path
             d="m 0,0 c 0,-2.348 -1.904,-4.252 -4.252,-4.252 -2.348,0 -4.252,1.904 -4.252,4.252 0,2.348 1.904,4.252 4.252,4.252 C -1.904,4.252 0,2.348 0,0 Z"
             style="fill:none;stroke:#e52621;stroke-width:1;stroke-linecap:butt;stroke-linejoin:miter;stroke-miterlimit:10;stroke-dasharray:none;stroke-opacity:1"
             id="path146"
             inkscape:connector-curvature="0" /></g><g
           id="g148"
           transform="translate(337.9013,696.4777)"><path
             d="m 0,0 c 0,-2.348 -1.904,-4.252 -4.252,-4.252 -2.348,0 -4.252,1.904 -4.252,4.252 0,2.348 1.904,4.252 4.252,4.252 C -1.904,4.252 0,2.348 0,0 Z"
             style="fill:none;stroke:#e52621;stroke-width:1;stroke-linecap:butt;stroke-linejoin:miter;stroke-miterlimit:10;stroke-dasharray:none;stroke-opacity:1"
             id="path150"
             inkscape:connector-curvature="0" /></g><g
           id="g152"
           transform="translate(196.1693,815.5463)"><path
             d="m 0,0 c 0,-2.348 -1.904,-4.252 -4.252,-4.252 -2.348,0 -4.252,1.904 -4.252,4.252 0,2.348 1.904,4.252 4.252,4.252 C -1.904,4.252 0,2.348 0,0 Z"
             style="fill:none;stroke:#e52621;stroke-width:1;stroke-linecap:butt;stroke-linejoin:miter;stroke-miterlimit:10;stroke-dasharray:none;stroke-opacity:1"
             id="path154"
             inkscape:connector-curvature="0" /></g><g
           id="g156"
           transform="translate(337.9013,812.743)"><path
             d="m 0,0 c 0,-2.348 -1.904,-4.252 -4.252,-4.252 -2.348,0 -4.252,1.904 -4.252,4.252 0,2.348 1.904,4.252 4.252,4.252 C -1.904,4.252 0,2.348 0,0 Z"
             style="fill:none;stroke:#e52621;stroke-width:1;stroke-linecap:butt;stroke-linejoin:miter;stroke-miterlimit:10;stroke-dasharray:none;stroke-opacity:1"
             id="path158"
             inkscape:connector-curvature="0" /></g><g
           id="g160"
           transform="translate(327.0196,725.4213)"><path
             d="m 0,0 0,-12.89 3.648,3.169 0,-4.201 L 0,-17.09 l -3.936,0 0,17.09 L 0,0 Z"
             style="fill:#ffed00;fill-opacity:1;fill-rule:nonzero;stroke:none"
             id="path162"
             inkscape:connector-curvature="0" /></g><g
           id="g164"
           transform="translate(290.2892,725.4213)"><path
             d="m 0,0 0,-3.553 -6.193,-6.72 c -0.624,-0.672 -0.864,-1.105 -0.864,-1.825 0,-0.936 0.528,-1.584 1.536,-1.584 0.72,0 1.585,0.336 1.585,1.657 l 3.936,0 c 0,-3.361 -2.544,-5.209 -5.521,-5.209 -3.168,0 -5.472,1.944 -5.472,5.16 0,1.801 0.744,2.76 2.112,4.201 l 4.08,4.32 -6.192,0 0,3.553 L 0,0 Z"
             style="fill:#ffed00;fill-opacity:1;fill-rule:nonzero;stroke:none"
             id="path166"
             inkscape:connector-curvature="0" /></g><g
           id="g168"
           transform="translate(245.197,725.5648)"><path
             d="m 0,0 c 2.833,0 5.689,-1.512 5.689,-5.353 l -3.936,0 c 0,1.201 -0.769,1.801 -1.753,1.801 -1.032,0 -1.752,-0.6 -1.752,-1.824 0,-1.032 0.768,-1.801 1.824,-1.801 l 0.552,0 0,-3.408 -0.552,0 c -1.176,0 -1.632,-0.84 -1.632,-1.608 0,-1.08 0.744,-1.632 1.56,-1.632 0.816,0 1.561,0.576 1.561,1.608 l 3.936,0 c 0,-3.217 -2.449,-5.16 -5.497,-5.16 -3.168,0 -5.496,2.112 -5.496,5.064 0,1.873 0.912,2.785 1.776,3.336 -0.936,0.649 -1.968,1.68 -1.968,3.721 C -5.688,-1.68 -3,0 0,0"
             style="fill:#ffed00;fill-opacity:1;fill-rule:nonzero;stroke:none"
             id="path170"
             inkscape:connector-curvature="0" /></g><g
           id="g172"
           transform="translate(199.993,723.1644)"><path
             d="m 0,0 0,2.257 3.745,0 0,-2.257 7.08,0 0,-3.744 -5.664,-11.089 -4.321,0 5.665,11.089 -2.76,0 0,-2.256 -3.745,0 0,2.256 -1.272,0 0,3.744 L 0,0 Z"
             style="fill:#ffed00;fill-opacity:1;fill-rule:nonzero;stroke:none"
             id="path174"
             inkscape:connector-curvature="0" /></g><g
           id="g176"
           transform="translate(160.5177,724.1009)"><path
             d="m 0,0 c 0.744,0.744 2.041,1.464 3.961,1.464 1.92,0 3.312,-0.744 4.056,-1.488 1.224,-1.224 1.392,-2.617 1.488,-3.865 l -3.936,0 c -0.12,1.128 -0.6,1.801 -1.608,1.801 -0.48,0 -0.792,-0.12 -1.104,-0.433 -0.36,-0.359 -0.504,-0.983 -0.504,-1.992 0,-1.895 0.648,-2.423 1.608,-2.423 1.152,0 1.439,0.767 1.608,1.223 l 3.624,0 0,-10.056 -10.417,0 0,3.552 6.841,0 0,2.64 c -0.336,-0.264 -1.248,-0.672 -2.304,-0.672 -1.489,0 -2.617,0.504 -3.313,1.2 -1.392,1.393 -1.584,2.929 -1.584,4.536 0,2.065 0.312,3.241 1.584,4.513"
             style="fill:#ffed00;fill-opacity:1;fill-rule:nonzero;stroke:none"
             id="path178"
             inkscape:connector-curvature="0" /></g><g
           id="g180"
           transform="translate(123.8346,718.1244)"><path
             d="M 0,0 C 0.96,0 1.752,0.672 1.752,1.944 1.752,3.216 0.96,3.889 0,3.889 -0.96,3.889 -1.752,3.216 -1.752,1.944 -1.752,0.672 -0.96,0 0,0 m 0,7.44 c 3.072,0 5.688,-1.872 5.688,-5.496 0,-1.752 -0.839,-3.36 -1.632,-4.968 l -3.288,-6.769 -4.32,0 3.384,6.696 c -0.336,-0.119 -0.696,-0.119 -0.96,-0.119 -2.088,0 -4.56,1.776 -4.56,5.16 0,3.624 2.616,5.496 5.688,5.496"
             style="fill:#ffed00;fill-opacity:1;fill-rule:nonzero;stroke:none"
             id="path182"
             inkscape:connector-curvature="0" /></g><g
           id="g184"
           transform="translate(82.6874,725.4213)"><path
             d="m 0,0 4.32,0 -5.328,-13.538 3.648,0 0,2.688 3.745,0 0,-6.24 -11.714,0 0,3.552 L 0,0 Z"
             style="fill:#ffed00;fill-opacity:1;fill-rule:nonzero;stroke:none"
             id="path186"
             inkscape:connector-curvature="0" /></g><g
           id="g188"
           transform="translate(43.3076,711.7396)"><path
             d="M 0,0 C 0.912,0 1.633,0.72 1.633,1.632 1.633,2.545 0.912,3.265 0,3.265 -0.912,3.265 -1.632,2.545 -1.632,1.632 -1.632,0.72 -0.912,0 0,0 m 0,6.673 c 0.984,0 1.801,0.816 1.801,1.8 0,0.984 -0.817,1.801 -1.801,1.801 -0.983,0 -1.8,-0.817 -1.8,-1.801 0,-0.984 0.817,-1.8 1.8,-1.8 m 0,7.152 c 3.145,0 5.736,-1.704 5.736,-5.256 C 5.736,6.433 4.465,5.425 3.816,4.897 4.417,4.393 5.568,3.36 5.568,1.512 5.568,-1.728 2.929,-3.552 0,-3.552 c -2.928,0 -5.568,1.824 -5.568,5.064 0,1.848 1.152,2.881 1.752,3.385 -0.648,0.528 -1.92,1.536 -1.92,3.672 0,3.552 2.592,5.256 5.736,5.256"
             style="fill:#ffed00;fill-opacity:1;fill-rule:nonzero;stroke:none"
             id="path190"
             inkscape:connector-curvature="0" /></g><g
           id="g192"
           transform="translate(766.9189,264.5102)"><path
             d="m 0,0 0,-26.465 -8.504,0 0,-26.037 8.504,0 0,-26.604 -8.504,0 0,-26.039 8.504,0 0,-26.606 -8.504,0 0,-26.037 8.504,0 0,-26.464 -26.463,0 0,8.502 -26.038,0 0,-8.502 -26.605,0 0,8.502 -26.039,0 0,-8.502 -26.605,0 0,8.502 -26.041,0 0,-8.502 -26.461,0 0,26.464 8.505,0 0,26.037 -8.505,0 0,26.606 8.505,0 0,26.039 -8.505,0 0,26.604 8.505,0 0,26.037 -8.505,0 0,26.465 26.461,0 0,-8.503 26.041,0 0,8.503 26.605,0 0,-8.503 26.039,0 0,8.503 26.605,0 0,-8.503 26.038,0 0,8.503 L 0,0 Z"
             style="fill:none;stroke:#e52621;stroke-width:0.80000001;stroke-linecap:butt;stroke-linejoin:miter;stroke-miterlimit:4;stroke-dasharray:none;stroke-opacity:1"
             id="path194"
             inkscape:connector-curvature="0" /></g><path
           d="m 608.431,238.746 132.724,0 0,-132.724 -132.724,0 0,132.724 z"
           style="fill:none;stroke:#68b42e;stroke-width:1.20799994;stroke-linecap:butt;stroke-linejoin:miter;stroke-miterlimit:4;stroke-dasharray:none;stroke-opacity:1"
           id="path196"
           inkscape:connector-curvature="0" /><path
           d="m 743.721,185.404 -8.504,0 0,-26.039 8.504,0 0,26.039 z"
           style="fill:none;stroke:#e52621;stroke-width:0.80000001;stroke-linecap:butt;stroke-linejoin:miter;stroke-miterlimit:4;stroke-dasharray:none;stroke-opacity:1"
           id="path198"
           inkscape:connector-curvature="0" /><g
           id="g200"
           transform="translate(1330.2072,647.3942)"><path
             d="m 0,0 0,-26.465 -8.504,0 0,-26.037 8.504,0 0,-26.604 -8.504,0 0,-26.039 8.504,0 0,-26.606 -8.504,0 0,-26.037 8.504,0 0,-26.464 -26.463,0 0,8.502 -26.038,0 0,-8.502 -26.605,0 0,8.502 -26.039,0 0,-8.502 -26.605,0 0,8.502 -26.041,0 0,-8.502 -26.461,0 0,26.464 8.505,0 0,26.037 -8.505,0 0,26.606 8.505,0 0,26.039 -8.505,0 0,26.604 8.505,0 0,26.037 -8.505,0 0,26.465 26.461,0 0,-8.503 26.041,0 0,8.503 26.605,0 0,-8.503 26.039,0 0,8.503 26.605,0 0,-8.503 26.038,0 0,8.503 L 0,0 Z"
             style="fill:none;stroke:#e52621;stroke-width:0.80000001;stroke-linecap:butt;stroke-linejoin:miter;stroke-miterlimit:4;stroke-dasharray:none;stroke-opacity:1"
             id="path202"
             inkscape:connector-curvature="0" /></g><g
           id="g204"
           transform="translate(1178.5463,582.5428)"><path
             d="M 0,0 10.708,-0.054 10.702,-1.298 1.122,-1.25 1.098,-5.975 -0.03,-5.969 0,0 Z"
             style="fill:none;stroke:#2b4c9b;stroke-width:1;stroke-linecap:butt;stroke-linejoin:miter;stroke-miterlimit:10;stroke-dasharray:none;stroke-opacity:1"
             id="path206"
             inkscape:connector-curvature="0" /></g><g
           id="g208"
           transform="translate(1186.5297,573.7596)"><path
             d="m 0,0 -5.208,0.025 c -0.654,0.004 -1.143,-0.142 -1.466,-0.439 -0.324,-0.296 -0.488,-0.762 -0.491,-1.397 -0.004,-0.839 0.222,-1.455 0.679,-1.844 0.458,-0.392 1.206,-0.589 2.246,-0.594 l 4.219,-0.021 -0.006,-1.216 -8.028,0.04 0.005,1.004 1.078,0.17 0,0.066 c -0.394,0.25 -0.695,0.598 -0.903,1.041 -0.208,0.442 -0.31,0.947 -0.307,1.514 0.005,0.976 0.24,1.706 0.706,2.19 0.467,0.482 1.21,0.723 2.231,0.717 L 0.006,1.23 0,0 Z"
             style="fill:none;stroke:#2b4c9b;stroke-width:1;stroke-linecap:butt;stroke-linejoin:miter;stroke-miterlimit:10;stroke-dasharray:none;stroke-opacity:1"
             id="path210"
             inkscape:connector-curvature="0" /></g><g
           id="g212"
           transform="translate(1178.411,555.5027)"><path
             d="M 0,0 5.222,-0.026 C 5.862,-0.029 6.342,0.105 6.663,0.377 6.984,0.649 7.147,1.073 7.149,1.649 7.153,2.406 6.939,2.966 6.506,3.329 6.073,3.693 5.405,3.877 4.502,3.882 L 0.02,3.904 0.026,5.12 5.248,5.094 C 5.887,5.091 6.368,5.225 6.689,5.497 7.01,5.769 7.172,6.195 7.175,6.776 7.179,7.538 6.953,8.097 6.499,8.453 6.044,8.81 5.296,8.99 4.256,8.995 l -4.211,0.022 0.006,1.215 8.028,-0.04 -0.005,-0.988 -1.1,-0.193 0,-0.059 C 7.363,8.721 7.667,8.396 7.884,7.978 8.102,7.559 8.209,7.091 8.207,6.573 8.201,5.318 7.743,4.5 6.833,4.119 L 6.832,4.061 C 7.251,3.819 7.581,3.471 7.823,3.016 8.065,2.56 8.184,2.042 8.182,1.461 8.177,0.553 7.94,-0.126 7.472,-0.576 7.003,-1.024 6.256,-1.246 5.231,-1.241 L -0.006,-1.215 0,0 Z"
             style="fill:none;stroke:#2b4c9b;stroke-width:1;stroke-linecap:butt;stroke-linejoin:miter;stroke-miterlimit:10;stroke-dasharray:none;stroke-opacity:1"
             id="path214"
             inkscape:connector-curvature="0" /></g><g
           id="g216"
           transform="translate(1178.3866,550.5662)"><path
             d="M 0,0 0.006,1.216 8.033,1.176 8.027,-0.04 0,0 Z M 10.209,1.267 C 10.487,1.266 10.691,1.196 10.82,1.059 10.948,0.922 11.012,0.75 11.011,0.545 11.01,0.35 10.943,0.183 10.811,0.04 10.678,-0.1 10.476,-0.17 10.202,-0.169 9.929,-0.167 9.725,-0.095 9.591,0.047 9.458,0.189 9.392,0.358 9.393,0.554 c 10e-4,0.205 0.068,0.375 0.203,0.511 0.135,0.136 0.34,0.204 0.613,0.202 z"
             style="fill:none;stroke:#2b4c9b;stroke-width:1;stroke-linecap:butt;stroke-linejoin:miter;stroke-miterlimit:10;stroke-dasharray:none;stroke-opacity:1"
             id="path218"
             inkscape:connector-curvature="0" /></g><g
           id="g220"
           transform="translate(1187.4432,544.0252)"><path
             d="M 0,0 0.004,0.805 C 0.26,1.122 0.623,1.496 1.094,1.929 1.565,2.36 1.955,2.673 2.263,2.867 L 2.417,2.866 2.41,1.379 C 2.072,1.226 1.681,1.01 1.238,0.733 0.794,0.457 0.443,0.213 0.183,-0.001 L 0,0 Z m -1.929,0.866 c 0.003,0.645 -0.204,1.159 -0.622,1.545 -0.418,0.385 -0.998,0.614 -1.74,0.687 L -4.312,-1.1 c 0.767,-0.004 1.354,0.164 1.764,0.504 0.409,0.34 0.616,0.827 0.619,1.462 z M -9.233,0.573 c 0.006,1.186 0.372,2.12 1.098,2.804 0.726,0.682 1.731,1.02 3.015,1.014 1.294,-0.006 2.321,-0.33 3.079,-0.971 0.759,-0.642 1.135,-1.499 1.13,-2.573 -0.005,-1.006 -0.34,-1.8 -1.004,-2.383 -0.665,-0.583 -1.539,-0.871 -2.623,-0.866 l -0.769,0.004 0.027,5.53 C -6.222,3.112 -6.939,2.878 -7.429,2.428 -7.92,1.979 -8.167,1.344 -8.171,0.523 -8.176,-0.34 -7.999,-1.195 -7.642,-2.042 l -1.084,0.006 c -0.184,0.431 -0.315,0.837 -0.393,1.221 -0.079,0.383 -0.117,0.845 -0.114,1.388 z"
             style="fill:none;stroke:#2b4c9b;stroke-width:1;stroke-linecap:butt;stroke-linejoin:miter;stroke-miterlimit:10;stroke-dasharray:none;stroke-opacity:1"
             id="path222"
             inkscape:connector-curvature="0" /></g><g
           id="g224"
           transform="translate(1186.4872,535.8699)"><path
             d="m 0,0 c -0.002,-0.356 -0.033,-0.676 -0.093,-0.959 l -1.127,0.174 c 0.075,0.332 0.113,0.624 0.115,0.878 0.002,0.649 -0.258,1.207 -0.783,1.671 -0.525,0.464 -1.181,0.698 -1.967,0.702 l -4.307,0.021 0.006,1.216 8.028,-0.04 -0.005,-1.004 -1.488,-0.132 0,-0.058 C -1.1,2.169 -0.699,1.808 -0.418,1.387 -0.137,0.966 0.002,0.503 0,0 Z"
             style="fill:none;stroke:#2b4c9b;stroke-width:1;stroke-linecap:butt;stroke-linejoin:miter;stroke-miterlimit:10;stroke-dasharray:none;stroke-opacity:1"
             id="path226"
             inkscape:connector-curvature="0" /></g><g
           id="g228"
           transform="translate(1185.4418,530.3524)"><path
             d="M 0,0 C 0.003,0.645 -0.205,1.159 -0.623,1.545 -1.041,1.93 -1.62,2.159 -2.362,2.231 l -0.021,-4.197 c 0.766,-0.004 1.354,0.164 1.764,0.504 C -0.21,-1.122 -0.003,-0.635 0,0 Z m -7.304,-0.293 c 0.006,1.186 0.372,2.12 1.098,2.804 0.726,0.681 1.731,1.02 3.015,1.013 1.294,-0.005 2.32,-0.33 3.079,-0.97 C 0.646,1.912 1.023,1.055 1.018,-0.02 1.013,-1.025 0.678,-1.819 0.014,-2.402 -0.651,-2.985 -1.525,-3.273 -2.609,-3.269 l -0.769,0.004 0.027,5.531 C -4.293,2.246 -5.01,2.012 -5.5,1.562 -5.991,1.113 -6.238,0.478 -6.242,-0.343 -6.247,-1.206 -6.07,-2.062 -5.713,-2.908 l -1.084,0.006 c -0.183,0.43 -0.315,0.837 -0.393,1.22 -0.079,0.384 -0.117,0.846 -0.114,1.389 z"
             style="fill:none;stroke:#2b4c9b;stroke-width:1;stroke-linecap:butt;stroke-linejoin:miter;stroke-miterlimit:10;stroke-dasharray:none;stroke-opacity:1"
             id="path230"
             inkscape:connector-curvature="0" /></g><path
           d="m 1009.061,732.442 -30.898,0 0,34.016 30.898,0 0,-34.016 z"
           style="fill:none;stroke:#e52621;stroke-width:1;stroke-linecap:butt;stroke-linejoin:miter;stroke-miterlimit:10;stroke-dasharray:none;stroke-opacity:1"
           id="path232"
           inkscape:connector-curvature="0" /><g
           id="g234"
           transform="translate(1128.974,841.6094)"><path
             d="m 0,0 0,-26.18 8.509,0 0,-26.605 -8.509,0 0,-26.039 8.509,0 0,-26.605 -8.509,0 0,-26.038 8.509,0 0,-26.605 -8.509,0 0,-26.18 -33.589,0 0,8.504 -33.166,0 0,-8.504 -33.731,0 0,8.504 -33.164,0 0,-8.504 -33.591,0 0,26.18 -8.502,0 0,26.605 8.502,0 0,26.038 -8.502,0 0,26.605 8.502,0 0,26.039 -8.502,0 0,26.605 8.502,0 0,26.18 33.591,0 0,-8.505 33.163,0 0,8.505 33.732,0 0,-8.505 33.166,0 0,8.505 L 0,0 Z"
             style="fill:none;stroke:#e52621;stroke-width:0.80000001;stroke-linecap:butt;stroke-linejoin:miter;stroke-miterlimit:4;stroke-dasharray:none;stroke-opacity:1"
             id="path236"
             inkscape:connector-curvature="0" /></g><g
           id="g238"
           transform="translate(1330.3796,841.394)"><path
             d="m 0,0 0,-26.463 -8.504,0 0,-26.039 8.504,0 0,-26.605 -8.504,0 0,-26.038 8.504,0 0,-26.605 -8.504,0 0,-26.039 8.504,0 0,-26.463 -26.463,0 0,8.504 -26.038,0 0,-8.504 -26.605,0 0,8.504 -26.038,0 0,-8.504 -26.606,0 0,8.504 -26.041,0 0,-8.504 -26.461,0 0,26.463 8.505,0 0,26.039 -8.505,0 0,26.605 8.505,0 0,26.038 -8.505,0 0,26.605 8.505,0 0,26.039 -8.505,0 0,26.463 26.461,0 0,-8.505 26.041,0 0,8.505 26.606,0 0,-8.505 26.038,0 0,8.505 26.605,0 0,-8.505 26.038,0 0,8.505 L 0,0 Z"
             style="fill:none;stroke:#e52621;stroke-width:0.80000001;stroke-linecap:butt;stroke-linejoin:miter;stroke-miterlimit:4;stroke-dasharray:none;stroke-opacity:1"
             id="path240"
             inkscape:connector-curvature="0" /></g><g
           id="g242"
           transform="translate(1129.3513,648.8763)"><path
             d="m 0,0 0,-26.18 8.509,0 0,-26.604 -8.509,0 0,-26.041 8.509,0 0,-26.603 -8.509,0 0,-26.04 8.509,0 0,-26.605 -8.509,0 0,-26.179 -33.589,0 0,8.502 -33.166,0 0,-8.502 -33.731,0 0,8.502 -33.164,0 0,-8.502 -33.591,0 0,26.179 -8.502,0 0,26.605 8.502,0 0,26.04 -8.502,0 0,26.603 8.502,0 0,26.041 -8.502,0 0,26.604 8.502,0 0,26.18 33.591,0 0,-8.503 33.163,0 0,8.503 33.732,0 0,-8.503 33.166,0 0,8.503 L 0,0 Z"
             style="fill:none;stroke:#e52621;stroke-width:0.80000001;stroke-linecap:butt;stroke-linejoin:miter;stroke-miterlimit:4;stroke-dasharray:none;stroke-opacity:1"
             id="path244"
             inkscape:connector-curvature="0" /></g><g
           id="g246"
           transform="translate(936.8348,640.3735)"><path
             d="m 0,0 0,-17.677 8.505,0 0,-26.604 -8.505,0 0,-26.041 8.505,0 0,-26.603 -8.505,0 0,-26.04 8.505,0 0,-26.605 -8.505,0 0,-17.677 -33.307,0 0,-8.502 -33.733,0 0,8.502 -33.163,0 0,-8.502 -33.732,0 0,8.502 -33.309,0 0,17.677 -8.503,0 0,26.605 8.503,0 0,26.04 -8.503,0 0,26.603 8.503,0 0,26.041 -8.503,0 0,26.604 8.503,0 0,17.677 33.309,0 0,8.503 33.732,0 0,-8.503 33.163,0 0,8.503 33.733,0 0,-8.503 L 0,0 Z"
             style="fill:none;stroke:#e52621;stroke-width:0.80000001;stroke-linecap:butt;stroke-linejoin:miter;stroke-miterlimit:4;stroke-dasharray:none;stroke-opacity:1"
             id="path248"
             inkscape:connector-curvature="0" /></g><g
           id="g250"
           transform="translate(936.8348,832.889)"><path
             d="m 0,0 0,-17.675 8.505,0 0,-26.605 -8.505,0 0,-26.039 8.505,0 0,-26.605 -8.505,0 0,-26.038 8.505,0 0,-26.605 -8.505,0 0,-17.676 -33.307,0 0,-8.504 -33.733,0 0,8.504 -33.163,0 0,-8.504 -33.732,0 0,8.504 -33.309,0 0,17.676 -8.503,0 0,26.605 8.503,0 0,26.038 -8.503,0 0,26.605 8.503,0 0,26.039 -8.503,0 0,26.605 8.503,0 0,17.675 33.309,0 0,8.505 33.732,0 0,-8.505 33.163,0 0,8.505 33.733,0 0,-8.505 L 0,0 Z"
             style="fill:none;stroke:#e52621;stroke-width:0.80000001;stroke-linecap:butt;stroke-linejoin:miter;stroke-miterlimit:4;stroke-dasharray:none;stroke-opacity:1"
             id="path252"
             inkscape:connector-curvature="0" /></g><g
           id="g254"
           transform="translate(1238.4464,561.348)"><path
             d="m 0,0 c -2.695,0 -5.038,-1.504 -6.236,-3.719 l 0,-6.735 c 1.198,-2.215 3.541,-3.719 6.236,-3.719 2.695,0 5.038,1.504 6.236,3.719 l 0,6.735 C 5.038,-1.504 2.695,0 0,0 Z"
             style="fill:none;stroke:#e52621;stroke-width:0.80000001;stroke-linecap:butt;stroke-linejoin:miter;stroke-miterlimit:4;stroke-dasharray:none;stroke-opacity:1"
             id="path256"
             inkscape:connector-curvature="0" /></g><g
           id="g258"
           transform="translate(1238.4452,538.2227)"><path
             d="M 0,0 0,-39.956"
             style="fill:none;stroke:#68b42e;stroke-width:1.20799994;stroke-linecap:butt;stroke-linejoin:miter;stroke-miterlimit:4;stroke-dasharray:none;stroke-opacity:1"
             id="path260"
             inkscape:connector-curvature="0" /></g><g
           id="g262"
           transform="translate(1238.4452,612.2679)"><path
             d="M 0,0 0,-41.699"
             style="fill:none;stroke:#68b42e;stroke-width:1.20799994;stroke-linecap:butt;stroke-linejoin:miter;stroke-miterlimit:4;stroke-dasharray:none;stroke-opacity:1"
             id="path264"
             inkscape:connector-curvature="0" /></g><g
           id="g266"
           transform="translate(1246.8843,540.6503)"><path
             d="M 0,0 20.061,-34.747"
             style="fill:none;stroke:#68b42e;stroke-width:1.20799994;stroke-linecap:butt;stroke-linejoin:miter;stroke-miterlimit:4;stroke-dasharray:none;stroke-opacity:1"
             id="path268"
             inkscape:connector-curvature="0" /></g><g
           id="g270"
           transform="translate(1209.9449,604.6313)"><path
             d="M 0,0 20.761,-35.959"
             style="fill:none;stroke:#68b42e;stroke-width:1.20799994;stroke-linecap:butt;stroke-linejoin:miter;stroke-miterlimit:4;stroke-dasharray:none;stroke-opacity:1"
             id="path272"
             inkscape:connector-curvature="0" /></g><g
           id="g274"
           transform="translate(1252.8624,546.9435)"><path
             d="M 0,0 34.947,-20.177"
             style="fill:none;stroke:#68b42e;stroke-width:1.20799994;stroke-linecap:butt;stroke-linejoin:miter;stroke-miterlimit:4;stroke-dasharray:none;stroke-opacity:1"
             id="path276"
             inkscape:connector-curvature="0" /></g><g
           id="g278"
           transform="translate(1198.4426,578.3628)"><path
             d="M 0,0 26.294,-15.181"
             style="fill:none;stroke:#68b42e;stroke-width:1.20799994;stroke-linecap:butt;stroke-linejoin:miter;stroke-miterlimit:4;stroke-dasharray:none;stroke-opacity:1"
             id="path280"
             inkscape:connector-curvature="0" /></g><g
           id="g282"
           transform="translate(1252.6665,555.2673)"><path
             d="M 0,0 42.779,0"
             style="fill:none;stroke:#68b42e;stroke-width:1.20799994;stroke-linecap:butt;stroke-linejoin:miter;stroke-miterlimit:4;stroke-dasharray:none;stroke-opacity:1"
             id="path284"
             inkscape:connector-curvature="0" /></g><g
           id="g286"
           transform="translate(1198.4426,555.2673)"><path
             d="M 0,0 25.724,0"
             style="fill:none;stroke:#68b42e;stroke-width:1.20799994;stroke-linecap:butt;stroke-linejoin:miter;stroke-miterlimit:4;stroke-dasharray:none;stroke-opacity:1"
             id="path288"
             inkscape:connector-curvature="0" /></g><g
           id="g290"
           transform="translate(1252.1285,563.1674)"><path
             d="M 0,0 35.681,20.6"
             style="fill:none;stroke:#68b42e;stroke-width:1.20799994;stroke-linecap:butt;stroke-linejoin:miter;stroke-miterlimit:4;stroke-dasharray:none;stroke-opacity:1"
             id="path292"
             inkscape:connector-curvature="0" /></g><g
           id="g294"
           transform="translate(1198.4426,532.1742)"><path
             d="M 0,0 25.484,14.711"
             style="fill:none;stroke:#68b42e;stroke-width:1.20799994;stroke-linecap:butt;stroke-linejoin:miter;stroke-miterlimit:4;stroke-dasharray:none;stroke-opacity:1"
             id="path296"
             inkscape:connector-curvature="0" /></g><g
           id="g298"
           transform="translate(1246.1603,568.6303)"><path
             d="M 0,0 20.785,36.001"
             style="fill:none;stroke:#68b42e;stroke-width:1.20799994;stroke-linecap:butt;stroke-linejoin:miter;stroke-miterlimit:4;stroke-dasharray:none;stroke-opacity:1"
             id="path300"
             inkscape:connector-curvature="0" /></g><g
           id="g302"
           transform="translate(1209.9449,505.9033)"><path
             d="M 0,0 20.019,34.674"
             style="fill:none;stroke:#68b42e;stroke-width:1.20799994;stroke-linecap:butt;stroke-linejoin:miter;stroke-miterlimit:4;stroke-dasharray:none;stroke-opacity:1"
             id="path304"
             inkscape:connector-curvature="0" /></g><path
           d="m 447.6,355.565 -30.897,0 0,34.016 30.897,0 0,-34.016 z"
           style="fill:none;stroke:#e52621;stroke-width:1;stroke-linecap:butt;stroke-linejoin:miter;stroke-miterlimit:10;stroke-dasharray:none;stroke-opacity:1"
           id="path306"
           inkscape:connector-curvature="0" /><g
           id="g308"
           transform="translate(567.5132,464.7321)"><path
             d="m 0,0 0,-26.18 8.509,0 0,-26.605 -8.509,0 0,-26.039 8.509,0 0,-26.605 -8.509,0 0,-26.038 8.509,0 0,-26.605 -8.509,0 0,-26.18 -33.589,0 0,8.504 -33.166,0 0,-8.504 -33.731,0 0,8.504 -33.164,0 0,-8.504 -33.591,0 0,26.18 -8.502,0 0,26.605 8.502,0 0,26.038 -8.502,0 0,26.605 8.502,0 0,26.039 -8.502,0 0,26.605 8.502,0 0,26.18 33.591,0 0,-8.505 33.163,0 0,8.505 33.732,0 0,-8.505 33.166,0 0,8.505 L 0,0 Z"
             style="fill:none;stroke:#e52621;stroke-width:0.80000001;stroke-linecap:butt;stroke-linejoin:miter;stroke-miterlimit:4;stroke-dasharray:none;stroke-opacity:1"
             id="path310"
             inkscape:connector-curvature="0" /></g><g
           id="g312"
           transform="translate(768.9189,464.5167)"><path
             d="m 0,0 0,-26.463 -8.504,0 0,-26.039 8.504,0 0,-26.605 -8.504,0 0,-26.038 8.504,0 0,-26.605 -8.504,0 0,-26.039 8.504,0 0,-26.463 -26.463,0 0,8.504 -26.038,0 0,-8.504 -26.605,0 0,8.504 -26.038,0 0,-8.504 -26.606,0 0,8.504 -26.041,0 0,-8.504 -26.461,0 0,26.463 8.505,0 0,26.039 -8.505,0 0,26.605 8.505,0 0,26.038 -8.505,0 0,26.605 8.505,0 0,26.039 -8.505,0 0,26.463 26.461,0 0,-8.505 26.041,0 0,8.505 26.606,0 0,-8.505 26.038,0 0,8.505 26.605,0 0,-8.505 26.038,0 0,8.505 L 0,0 Z"
             style="fill:none;stroke:#e52621;stroke-width:0.80000001;stroke-linecap:butt;stroke-linejoin:miter;stroke-miterlimit:4;stroke-dasharray:none;stroke-opacity:1"
             id="path314"
             inkscape:connector-curvature="0" /></g><g
           id="g316"
           transform="translate(565.8906,267.9991)"><path
             d="m 0,0 0,-26.18 8.509,0 0,-26.604 -8.509,0 0,-26.041 8.509,0 0,-26.603 -8.509,0 0,-26.04 8.509,0 0,-26.605 -8.509,0 0,-26.179 -33.589,0 0,8.502 -33.166,0 0,-8.502 -33.731,0 0,8.502 -33.164,0 0,-8.502 -33.591,0 0,26.179 -8.502,0 0,26.605 8.502,0 0,26.04 -8.502,0 0,26.603 8.502,0 0,26.041 -8.502,0 0,26.604 8.502,0 0,26.18 33.591,0 0,-8.503 33.163,0 0,8.503 33.732,0 0,-8.503 33.166,0 0,8.503 L 0,0 Z"
             style="fill:none;stroke:#e52621;stroke-width:0.80000001;stroke-linecap:butt;stroke-linejoin:miter;stroke-miterlimit:4;stroke-dasharray:none;stroke-opacity:1"
             id="path318"
             inkscape:connector-curvature="0" /></g><g
           id="g320"
           transform="translate(373.374,264.4962)"><path
             d="m 0,0 0,-17.677 8.505,0 0,-26.604 -8.505,0 0,-26.041 8.505,0 0,-26.603 -8.505,0 0,-26.04 8.505,0 0,-26.605 -8.505,0 0,-17.677 -33.307,0 0,-8.502 -33.733,0 0,8.502 -33.163,0 0,-8.502 -33.733,0 0,8.502 -33.308,0 0,17.677 -8.503,0 0,26.605 8.503,0 0,26.04 -8.503,0 0,26.603 8.503,0 0,26.041 -8.503,0 0,26.604 8.503,0 0,17.677 33.308,0 0,8.503 33.733,0 0,-8.503 33.163,0 0,8.503 33.733,0 0,-8.503 L 0,0 Z"
             style="fill:none;stroke:#e52621;stroke-width:0.80000001;stroke-linecap:butt;stroke-linejoin:miter;stroke-miterlimit:4;stroke-dasharray:none;stroke-opacity:1"
             id="path322"
             inkscape:connector-curvature="0" /></g><g
           id="g324"
           transform="translate(180.6652,264.7421)"><path
             d="m 0,0 0,-17.675 8.505,0 0,-26.605 -8.505,0 0,-26.039 8.505,0 0,-26.605 -8.505,0 0,-26.038 8.505,0 0,-26.605 -8.505,0 0,-17.676 -33.307,0 0,-8.504 -33.733,0 0,8.504 -33.163,0 0,-8.504 -33.733,0 0,8.504 -33.308,0 0,17.676 -8.503,0 0,26.605 8.503,0 0,26.038 -8.503,0 0,26.605 8.503,0 0,26.039 -8.503,0 0,26.605 8.503,0 0,17.675 33.308,0 0,8.505 33.733,0 0,-8.505 33.163,0 0,8.505 33.733,0 0,-8.505 L 0,0 Z"
             style="fill:none;stroke:#e52621;stroke-width:0.80000001;stroke-linecap:butt;stroke-linejoin:miter;stroke-miterlimit:4;stroke-dasharray:none;stroke-opacity:1"
             id="path326"
             inkscape:connector-curvature="0" /></g></g></g></g></svg>